﻿Adriana Chalarca,1000001,Samsung Partner,true,2019-11-04T15:29:52.822Z
Alain Chalem,1000002,Samsung Partner,true,2019-11-06T04:29:03.889Z
Alberto Zapata,1000003,Samsung Partner,true,2019-11-06T04:29:51.215Z
Ana Maria Ramirez,1000004,Samsung Partner,true,2019-11-06T04:30:30.444Z
Andrea Jaramillo,1000005,Samsung Partner,true,2019-11-06T04:31:12.066Z
Andrea Salazar,1000006,Samsung Partner,true,2019-11-06T04:39:29.412Z
Andres Cardozo,1000007,Samsung Partner,true,2019-11-06T04:40:10.628Z
Andres Carlesimo,1000008,Samsung Partner,true,2019-11-06T04:41:14.085Z
Andres Felipe Robayo,1000009,Samsung Partner,true,2019-11-06T04:42:05.891Z
Andres Porras,1000010,Samsung Partner,true,2019-11-06T12:09:57.460Z
Arnaldo del Valle,1000011,Samsung Partner,true,2019-11-06T12:11:43.054Z
Aura ,1000012,Samsung Partner,true,2019-11-06T12:16:29.697Z
Aura Bosa,1000013,Samsung Partner,true,2019-11-06T12:17:46.185Z
Beatriz Zapata,1000014,Samsung Partner,true,2019-11-06T12:18:36.710Z
Berenice Valbuena,1000015,Samsung Partner,false,0
Camilo Diaz,1000016,Samsung Partner,false,0
Carlos Arango,1000017,Samsung Partner,false,0
Carlos Ariel Gomez,1000018,Samsung Partner,false,0
Carlos bedoya,1000019,Samsung Partner,false,0
Carlos Galindo,1000020,Samsung Partner,false,0
Carlos Jedeon,1000021,Samsung Partner,false,0
Carlos Mario Quintero,1000022,Samsung Partner,false,0
Carlos Mora,1000023,Samsung Partner,false,0
Carlos Platz,1000024,Samsung Partner,false,0
Carlos Zenteno,1000025,Samsung Partner,false,0
Carmen Viviana Valdi,1000026,Samsung Partner,false,0
Catalina Lozano,1000027,Samsung Partner,false,0
Constanza Ardila,1000028,Samsung Partner,false,0
Daniel Avellaneda,1000029,Samsung Partner,false,0
David Patiño,1000030,Samsung Partner,false,0
Edison Mesa,1000031,Samsung Partner,false,0
Federico Roca,1000032,Samsung Partner,false,0
Felipe,1000033,Samsung Partner,false,0
Felipe Villa,1000034,Samsung Partner,false,0
Fernando Briceño,1000035,Samsung Partner,false,0
Francisco Herrera,1000036,Samsung Partner,false,0
Freddy Rodriguez,1000037,Samsung Partner,false,0
Gabriel Lezcano,1000038,Samsung Partner,false,0
German Giraldo,1000039,Samsung Partner,false,0
German Velasquez,1000040,Samsung Partner,false,0
Guillermo Valbuena,1000041,Samsung Partner,false,0
Isam Hauchar,1000042,Samsung Partner,false,0
Javier Andres Suarez,1000043,Samsung Partner,false,0
Javier Rojas,1000044,Samsung Partner,false,0
Jenny Valencia,1000045,Samsung Partner,false,0
Jhon William Pineda,1000046,Samsung Partner,false,0
Jimmy Char,1000047,Samsung Partner,false,0
Joaquin Melendez,1000048,Samsung Partner,false,0
Jorge Ortega,1000049,Samsung Partner,false,0
Jose Cardona,1000050,Samsung Partner,false,0
Jose Luis Latorre,1000051,Samsung Partner,false,0
Juan Britton,1000052,Samsung Partner,false,0
Juan Carlos Villescas,1000053,Samsung Partner,false,0
Juan Escobar,1000054,Samsung Partner,false,0
Juan Guillermo  Lopera,1000055,Samsung Partner,false,0
Juan Javier Guila,1000056,Samsung Partner,false,0
Juan Manrique,1000057,Samsung Partner,false,0
Juan Manuel Concha,1000058,Samsung Partner,false,0
Julian Rubiano,1000059,Samsung Partner,false,0
laura Londoño,1000060,Samsung Partner,false,0
Leidy Patricia Martinez,1000061,Samsung Partner,false,0
Leonardo Jimenez,1000062,Samsung Partner,false,0
Lina Maria Herrera,1000063,Samsung Partner,false,0
Luis Fernando Castro,1000064,Samsung Partner,false,0
Luis Fernando Garcia,1000065,Samsung Partner,false,0
Luis Plata,1000066,Samsung Partner,false,0
Luz Neila Muñoz,1000067,Samsung Partner,false,0
Magali Gonzales,1000068,Samsung Partner,false,0
Magaly Gonzalez,1000069,Samsung Partner,false,0
Maria Camila Ortega,1000070,Samsung Partner,false,0
Maria Del Pilar Ocampo,1000071,Samsung Partner,false,0
Maria Fernanda Zuluaga,1000072,Samsung Partner,false,0
Maria Luisa Escolar,1000073,Samsung Partner,false,0
María Victoria Fernandez,1000074,Samsung Partner,false,0
Marina Giraldo,1000075,Samsung Partner,false,0
Mario Espana,1000076,Samsung Partner,false,0
Marisol Castelblanco,1000077,Samsung Partner,false,0
Maryury Martinez,1000078,Samsung Partner,false,0
Miguel A. Mendez,1000079,Samsung Partner,false,0
Miguel Boyano,1000080,Samsung Partner,false,0
Natalia Gomez ,1000081,Samsung Partner,false,0
Omar Mantilla,1000082,Samsung Partner,false,0
Pablo Bravo,1000083,Samsung Partner,false,0
Pablo Trujillo,1000084,Samsung Partner,false,0
Paola Ibanez,1000085,Samsung Partner,false,0
Paola Peña,1000086,Samsung Partner,false,0
Patricia Martinez,1000087,Samsung Partner,false,0
Paula Robles,1000088,Samsung Partner,false,0
Rafael Antonio Martinez,1000089,Samsung Partner,false,0
Rafael Rosario,1000090,Samsung Partner,false,0
Ricardo Bohorquez,1000091,Samsung Partner,false,0
Rodrigo De GuzmaYo,1000092,Samsung Partner,false,0
Rodrigo Pachon,1000093,Samsung Partner,false,0
Rodrigo Sanchez,1000094,Samsung Partner,false,0
Sandra Garzon,1000095,Samsung Partner,false,0
Sandra Malaver,1000096,Samsung Partner,false,0
Santiago Cruz,1000097,Samsung Partner,false,0
Santiago Jimenez,1000098,Samsung Partner,false,0
Santiago Zapata,1000099,Samsung Partner,false,0
Sebastian Rojas,1000100,Samsung Partner,false,0
Sebastian tellez,1000101,Samsung Partner,false,0
Sergio Armado,1000102,Samsung Partner,false,0
Simon Giraldo,1000103,Samsung Partner,false,0
Sonia Peña,1000104,Samsung Partner,false,0
Soraya Cifuentes,1000105,Samsung Partner,false,0
Valeria Florez,1000106,Samsung Partner,false,0
William Medina,1000107,Samsung Partner,false,0
Wilton Ronderos,1000108,Samsung Partner,false,0
Yeison Salazar,1000109,Samsung Partner,false,0
Zuri Valencia,1000110,Samsung Partner,false,0
 Mónica Guerrero,1000111,Guest,false,0
Adriana Ceballos,1000112,Guest,false,0
Agostino Almeida,1000113,Guest,false,0
Agostino Almeida - Director Centro para la Cuarta Rev,1000114,Guest,false,0
Alberto Samuel Yohai,1000115,Guest,false,0
Alejandro Pacheco,1000116,Guest,false,0
Alonso Herrán,1000117,Guest,false,0
Blanca Cardona,1000118,Guest,false,0
Camilo Juárez,1000119,Guest,false,0
Carlos Felipe Escobar - ,1000120,Guest,false,0
Carlos Hugo Ramírez,1000121,Guest,false,0
Carlos Maria Estrada - ,1000122,Guest,false,0
Carmen Morales,1000123,Guest,false,0
César León,1000124,Guest,false,0
Claudia Núñez,1000125,Guest,false,0
Claudia Núñez,1000126,Guest,false,0
Constanza Alarcón ,1000127,Guest,false,0
Cristian Gil,1000128,Guest,false,0
Daniel Sebastían Bustos Echeverry,1000129,Guest,false,0
Diana Silva,1000130,Guest,false,0
Felipe Castro,1000131,Guest,false,0
Germán López,1000132,Guest,false,0
Hernán Fuentes ,1000133,Guest,false,0
Iván Castaño,1000134,Guest,false,0
Iván Mantilla,1000135,Guest,false,0
Jehudi Castro,1000136,Guest,false,0
Jessica Faieta,1000137,Guest,false,0
Jimena Puyana,1000138,Guest,false,0
Jose Manuel Restrepo,1000139,Guest,false,0
Juan Andrés Beltrán,1000140,Guest,false,0
Juan David Martín,1000141,Guest,false,0
Julio César Castañeda,1000142,Guest,false,0
Kim Doo Sik ,1000143,Guest,false,0
Laura Valdivieso,1000144,Guest,false,0
Laura Vélez,1000145,Guest,false,0
Lina Arbeláez,1000146,Guest,false,0
Luis Felipe Sarmiento ,1000147,Guest,false,0
Luisa Vélez,1000148,Guest,false,0
Maria Juliana Ruiz,1000149,Guest,false,0
Maria Juliana Ruiz,1000150,Guest,false,0
Maria Victoria Angulo ,1000151,Guest,false,0
Miguel Durán,1000152,Guest,false,0
Natalia Barrera,1000153,Guest,false,0
Pablo Márquez,1000154,Guest,false,0
Raiza DeLuque Curiel,1000155,Guest,false,0
Ricardo Lozano,1000156,Guest,false,0
Roxane Noffra,1000157,Guest,false,0
Sandra Pascua ,1000158,Guest,false,0
Sául Pineda,1000159,Guest,false,0
Semn Paek ,1000160,Guest,false,0
Shirley Clavijo,1000161,Guest,false,0
Sofia Paredes,1000162,Guest,false,0
Sylvia Constaín,1000163,Guest,false,0
Victor Manuel Muñóz,1000164,Guest,false,0
Zoila Vargas,1000165,Guest,false,0
Alebanana,1000166,Guest,false,0
Alejandro Escallón,1000167,Guest,false,0
Alejandro Reyes,1000168,Guest,false,0
Andrea Rubio,1000169,Guest,false,0
Andrea Serna,1000170,Guest,false,0
Camila Martínez,1000171,Guest,false,0
Catalina Gomez,1000172,Guest,false,0
Cinthya Dussan,1000173,Guest,false,0
Claudia Ramos,1000174,Guest,false,0
Daniela Correal,1000175,Guest,false,0
Daniela Legarda,1000176,Guest,false,0
Daniela Salazar,1000177,Guest,false,0
Daniela Vidal,1000178,Guest,false,0
Diego Saenz,1000179,Guest,false,0
Diego Santos,1000180,Guest,false,0
Isabel Henao,1000181,Guest,false,0
Ita Maria,1000182,Guest,false,0
Ivan Garcia,1000183,Guest,false,0
Johana Medrano,1000184,Guest,false,0
Jorge Rodriguez,1000185,Guest,false,0
Juan Diego Cano,1000186,Guest,false,0
Juan Esteban Sampedro,1000187,Guest,false,0
Juan Pablo Socarrás,1000188,Guest,false,0
Jun Felipe Cadavid,1000189,Guest,false,0
Kika Vargas,1000190,Guest,false,0
Lina Cantllo,1000191,Guest,false,0
Mafe Mendez,1000192,Guest,false,0
María José Martínez,1000193,Guest,false,0
Nancy Loaiza,1000194,Guest,false,0
Nicolás de Zubiría,1000195,Guest,false,0
Ricardo Pava,1000196,Guest,false,0
Santiago Rojas,1000197,Guest,false,0
Sebastián Cardona,1000198,Guest,false,0
Sebastián Múnera,1000199,Guest,false,0
Sergio Rada,1000200,Guest,false,0
Simon Pulgarin,1000201,Guest,false,0
Sofía Medrano,1000202,Guest,false,0
Tito,1000203,Guest,false,0
Adriana Bernal,1000204,Media,false,0
Alejandra Camacho,1000205,Media,false,0
Alejandro González,1000206,Media,false,0
Alejandro Rincón,1000207,Media,false,0
Andrea Cardona,1000208,Media,false,0
Andres Botero,1000209,Media,false,0
Andrés Murcia,1000210,Media,false,0
Andrés Sanchez,1000211,Media,false,0
Ángel  Erazo ,1000212,Media,false,0
Angelica Casallas,1000213,Media,false,0
Aura  Izquierdo,1000214,Media,false,0
Bruce Garavito,1000215,Media,false,0
Carlos  Alvarado,1000216,Media,false,0
Carlos  Amaya ,1000217,Media,false,0
Carlos  Arrollo,1000218,Media,false,0
Carlos  García ,1000219,Media,false,0
Carlos Cantor,1000220,Media,false,0
Carlos Díaz,1000221,Media,false,0
Carlos Salgado,1000222,Media,false,0
Claudia Leonor Vesga,1000223,Media,false,0
Cristian Serrano,1000224,Media,false,0
Diana  Arias,1000225,Media,false,0
Diego  Bolaños,1000226,Media,false,0
Diego  Cambiaso,1000227,Media,false,0
Diego Ojeda,1000228,Media,false,0
Diego Rodriguez,1000229,Media,false,0
Edgar Ovalle,1000230,Media,false,0
Eduardo Hernández,1000231,Media,false,0
Eduardo Mafla,1000232,Media,false,0
Edwin Sabogal,1000233,Media,false,0
Ernesto Herrera,1000234,Media,false,0
Fabio  López,1000235,Media,false,0
Felipe  Galviz,1000236,Media,false,0
Felipe Lizcano,1000237,Media,false,0
Fernando  Rincón,1000238,Media,false,0
Gonzalo  Esguerra,1000239,Media,false,0
Gustavo Ortiz,1000240,Media,false,0
Gustavo Torres,1000241,Media,false,0
Hernando Paniagua,1000242,Media,false,0
Iván  Luzardo,1000243,Media,false,0
Jaime Dueñas,1000244,Media,false,0
Jairo Duque,1000245,Media,false,0
Jairo Perilla,1000246,Media,false,0
James Guapacho,1000247,Media,false,0
Jan Pablo Rosso,1000248,Media,false,0
Jennifer  Castiblanco,1000249,Media,false,0
Jessica  Chaves,1000250,Media,false,0
José Carlos  García,1000251,Media,false,0
Jose Saldana,1000252,Media,false,0
Juan Camilo  Ortiz,1000253,Media,false,0
Juan Camilo Maldonado,1000254,Media,false,0
Juan Manuel Neissa,1000255,Media,false,0
Juan Roberto Vargas,1000256,Media,false,0
Juan Sebastián Quintero,1000257,Media,false,0
Juanita Kremer,1000258,Media,false,0
Julieth Vásquez,1000259,Media,false,0
Katherine  Rodríguez,1000260,Media,false,0
Laura  Neira,1000261,Media,false,0
Linda Patiño,1000262,Media,false,0
Luis Alberto Gonzalez,1000263,Media,false,0
Manuel  Echeverry,1000264,Media,false,0
Marcela Perdomo,1000265,Media,false,0
Maria Camila Cruz,1000266,Media,false,0
Mario Chaves,1000267,Media,false,0
Medios Valbuena,1000268,Media,false,0
Michelle Barreto,1000269,Media,false,0
Miguel Angel Muñoz,1000270,Media,false,0
Mónica  Garzón,1000271,Media,false,0
Monica Montealegre,1000272,Media,false,0
Nicolas  Contreras,1000273,Media,false,0
Nicolás  Cuervo,1000274,Media,false,0
Nicolás Fernández,1000275,Media,false,0
Nicolás Schiller,1000276,Media,false,0
Oswaldo Martinez,1000277,Media,false,0
Oswaldo Vargas ,1000278,Media,false,0
Paola Andrea Acevedo,1000279,Media,false,0
Paulo Matamoros,1000280,Media,false,0
Raúl Ospina,1000281,Media,false,0
Ricardo  Galán ,1000282,Media,false,0
Samir Zambrano,1000283,Media,false,0
Sandra  Triana,1000284,Media,false,0
Sandra Rozo,1000285,Media,false,0
Santiago  Silvera,1000286,Media,false,0
Santiago Giraldo ,1000287,Media,false,0
Sarah Lee Méndez,1000288,Media,false,0
Sergio Trujillo,1000289,Media,false,0
Sharon Duran,1000290,Media,false,0
Simón  Hernández,1000291,Media,false,0
Tatiana Villalba ,1000292,Media,false,0
Virginia Cortés,1000293,Media,false,0
William  Diaz ,1000294,Media,false,0
Wilson  Vega,1000295,Media,false,0
Yesid  Aguilar,1000296,Media,false,0
Alejandro Rivas,1000297,Guest,false,0
Alex Rodriguez,1000298,Guest,false,0
Álvaro Vargas,1000299,Guest,false,0
Andrea López Ospina,1000300,Guest,false,0
Andres Camilo Castelblanco Peñuela,1000301,Guest,false,0
Andres Cardona,1000302,Guest,false,0
Andres Guarin,1000303,Guest,false,0
Andres Mosquera,1000304,Guest,false,0
Andres Samir Henao,1000305,Guest,false,0
Andres Solorzano,1000306,Guest,false,0
Angelo Patiño Gomez,1000307,Guest,false,0
Bryan Jimenez Lopez,1000308,Guest,false,0
Carina Gutiérrez Paz,1000309,Guest,false,0
Carlos Andres Bolivar Polania,1000310,Guest,false,0
Carlos botina Botina,1000311,Guest,false,0
Carlos Orozco,1000312,Guest,false,0
Daniel Felipe Morales Yusty,1000313,Guest,false,0
Daniel García,1000314,Guest,false,0
Daniela Jerez,1000315,Guest,false,0
Diana Cañon,1000316,Guest,false,0
Diana Vargas,1000317,Guest,false,0
Esael Angel Andrade,1000318,Guest,false,0
Esteban Andrade,1000319,Guest,false,0
Fabian Camilo Muñoz Peñaloza,1000320,Guest,false,0
fabio Serrano,1000321,Guest,false,0
FELIPE ALEJANDRO MEDINA SUÁREZ,1000322,Guest,false,0
Ginno Sebastián Henao Cusaria,1000323,Guest,false,0
javier cubillos,1000324,Guest,false,0
Jenny Ruiz,1000325,Guest,false,0
JHON JAIMES,1000326,Guest,false,0
Jhon Jairo Panche Quiroga,1000327,Guest,false,0
Jimmy sneider Jerez Gonzalez,1000328,Guest,false,0
Jorge Eduardo Rodriguez Pinilla Rodriguez Pinilla,1000329,Guest,false,0
Josué Palacios,1000330,Guest,false,0
Juan José Morales,1000331,Guest,false,0
Libardo Trujillo,1000332,Guest,false,0
Luis Hernan Gomez Ardila,1000333,Guest,false,0
Luis Manuel Benedetti Rojas,1000334,Guest,false,0
Manuel Dueñas,1000335,Guest,false,0
Maritza Silva Serrano Silva Serrano,1000336,Guest,false,0
Mateo Bedoya,1000337,Guest,false,0
Michael Villada,1000338,Guest,false,0
Nelson Castellanos,1000339,Guest,false,0
Nicolas Gonzalez,1000340,Guest,false,0
Nicolás Junco Villamizar,1000341,Guest,false,0
Oscar David Chingate Rodriguez,1000342,Guest,false,0
Paola Andrea Pinzon Trillos,1000343,Guest,false,0
Paola Moreno,1000344,Guest,false,0
Patricia Arteaga,1000345,Guest,false,0
paula andrea ledesma,1000346,Guest,false,0
Richard Andrés Diaz Niño,1000347,Guest,false,0
Ronald Sidney Martinez Botello,1000348,Guest,false,0
Santiago Gómez,1000349,Guest,false,0
Santiago Ramirez,1000350,Guest,false,0
SANTIAGO Yepes largo,1000351,Guest,false,0
Valeria Montenegro,1000352,Guest,false,0
William Molano,1000353,Guest,false,0
 Juana Vargas,1000354,Guest,false,0
Adriana Consuelo Chaves Camacho,1000355,Guest,false,0
Adriana Mor,1000356,Samsung Members,false,0
Alejandra Diaz,1000357,Guest,false,0
Alejandro Abril,1000358,Samsung Members,false,0
Alejandro Cubillos,1000359,Samsung Members,false,0
Alvaro Diego Galeano,1000360,Guest,false,0
Ana Cristina Moya,1000361,Samsung Members,false,0
Ana Maria  Hernandez,1000362,Guest,false,0
Andres Ovalle Bautista,1000363,Guest,false,0
Andrés Vargas,1000364,Samsung Members,false,0
Andres Yoo,1000365,Samsung Members,false,0
Angela Holguín,1000366,Samsung Members,false,0
Antonio Herrera,1000367,Guest,false,0
Aura Veraliz Mendez de Lopez,1000368,Guest,false,0
Brian Kim,1000369,Guest,false,0
Camilo Andres Hurtado Munoz,1000370,Guest,false,0
Camilo Gomez,1000371,Guest,false,0
Camilo Hinestroza,1000372,Samsung Members,false,0
Camilo Russi,1000373,Guest,false,0
Carlos Andres Hleap Lozano,1000374,Guest,false,0
Carlos Ernesto Vargas Calderon,1000375,Guest,false,0
Carlos felipe Diaz,1000376,Guest,false,0
Carol Muñóz,1000377,Guest,false,0
Carolina Azuero,1000378,Guest,false,0
Claudia Devia,1000379,Guest,false,0
Constanza Sepulveda Prieto,1000380,Guest,false,0
Cristhian Diaz,1000381,Samsung Members,false,0
Daniel Karim Abdala,1000382,Guest,false,0
Daniela Alfonso,1000383,Samsung Members,false,0
Daniela Aragon,1000384,Guest,false,0
Daniela Rodríguez,1000385,Guest,false,0
Darwin Rojas,1000386,Guest,false,0
David Suárez,1000387,Samsung Members,false,0
Diana Sanchez Coronado,1000388,Guest,false,0
Diego Alejandro Pena,1000389,Guest,false,0
Edgar Munoz,1000390,Guest,false,0
Fanny Bibiana Hoyos Villamizar,1000391,Guest,false,0
Francisco Correa,1000392,Samsung Members,false,0
Germán Castelblanco,1000393,Samsung Members,false,0
German Dario Martinez,1000394,Guest,false,0
Gilma Lucía Díaz,1000395,Samsung Members,false,0
Guiomar Manosalva Avila,1000396,Samsung Members,false,0
Hector Fabio Gutierrez,1000397,Guest,false,0
Ivan Alfredo Renteria Anzola,1000398,Guest,false,0
Jacob Sebastian Sandberg,1000399,Guest,false,0
Jegeol Kim,1000400,Guest,false,0
Jeison Monsalve,1000401,Guest,false,0
Jhon Hernandez,1000402,Guest,false,0
Jimena castelblanco,1000403,Guest,false,0
Jingwoong Kim,1000404,Guest,false,0
Joe Won Yang,1000405,Guest,false,0
Johan Hernando Pinzon Torres,1000406,Guest,false,0
Jose Armando Pinto Delgado,1000407,Guest,false,0
Juan David Reyes,1000408,Guest,false,0
Juan Guillermo Piñeros,1000409,Samsung Members,false,0
Juan Manuel Andrade Rincon,1000410,Guest,false,0
Juan Pablo Cortés,1000411,Samsung Members,false,0
Juan Pablo Montoya,1000412,Samsung Members,false,0
Juan Sebastián Téllez,1000413,Samsung Members,false,0
Julián Burbano,1000414,Samsung Members,false,0
Julian Enrique Nieto Manrique,1000415,Guest,false,0
Julian Munar,1000416,Guest,false,0
Julián Sandoval,1000417,Samsung Members,false,0
Juliana Bermúdez,1000418,Samsung Members,false,0
Juliana Ochoa,1000419,Guest,false,0
Julio Cesar Vargas Diaz,1000420,Guest,false,0
Laura Lopera,1000421,Guest,false,0
Leonardo gonzález,1000422,Guest,false,0
Liliana Valencia,1000423,Samsung Members,false,0
Lina Marcela Aristizabal Benitez,1000424,Samsung Members,false,0
Luis Cabeza,1000425,Samsung Members,false,0
Luis Felipe Díaz,1000426,Samsung Members,false,0
Luisa Fernanda Cardona Otalora,1000427,Guest,false,0
Manuel Edgardo Fernández,1000428,Guest,false,0
Marco Andres Guzman Palma,1000429,Guest,false,0
Maria Alejandra Ducuara,1000430,Guest,false,0
Maria Alejandra Orjuela Pava,1000431,Guest,false,0
Maria Alejandra Rodriguez Vasquez,1000432,Guest,false,0
Maria Camila Rey Prado,1000433,Guest,false,0
Maria Elisa Goez,1000434,Guest,false,0
Maria Paula Escobar,1000435,Samsung Members,false,0
Mayerli Uribe Tellez,1000436,Guest,false,0
Nicolas Alonso,1000437,Guest,false,0
Oriana Caro,1000438,Guest,false,0
Pablo Andres Campo Caicedo,1000439,Guest,false,0
Pablo Esteban Gomez Suarez,1000440,Samsung Members,false,0
Patricia Arteaga,1000441,Samsung Members,false,0
Patricia Piqueras,1000442,Samsung Members,false,0
Paula Ríos,1000443,Guest,false,0
Paulo Ricardo Mendez Garcia,1000444,Guest,false,0
Rafael Alberto Alarcon,1000445,Guest,false,0
Rafael Latorre,1000446,Samsung Members,false,0
Ricardo Torres,1000447,Samsung Members,false,0
Santiago Ospina Pinzon,1000448,Guest,false,0
Sergio Alberto Franco,1000449,Guest,false,0
Sofia Mateus,1000450,Guest,false,0
Sonia Vanegas,1000451,Samsung Members,false,0
Stefany Otero,1000452,Guest,false,0
Susana Bermudez,1000453,Guest,false,0
Thomas De Aquino Araujo,1000454,Guest,false,0
Wendy Herrera,1000455,Guest,false,0
Yongwan Kim,1000456,Samsung Members,false,0
Young Kim,1000457,Samsung Members,false,0
Diana Rubiano,1000458,Guest,false,0
Gabriel Osorio,1000459,Guest,false,0
Lina Niñoa,1000460,Guest,false,0
Yair Yesid Peñaranda Verjel,1000461,Guest,false,0
Paula Camila Rojas,1000462,Guest,false,0
Giovanni Fonseca Duffo,1000463,Guest,false,0
