DILLY PATRICIA GAVIRIA BERNAL,﻿1088305995,,false,0
CINDY YURENY LEON RIOS,1118539466,,false,0
TERESA DE JESUS RODRIGUEZ SALCEDO,51944133,,false,0
ESTEFANY VANESSA DE AZAMBUJA GAMBA,1121207661,,false,0
SANDRA MILENA JUNCA SALVINO,1121197827,,false,0
ELBERTO ALEXANDER CHAVES ALFARO,79683783,,false,0
ANA MILENA CABRERA GUSTIN,1121198423,,false,0
KEINY YULIANA GOMEZ GONSALES,1122729008,,false,0
SANDRA ELIANA LONDOÑO RAMOS,41056012,,false,0
CRISTIAN JAVIER ESPITIA MORENO,1023935794,,false,0
VICTOR HUGO PEREZ ANTORVEZA,1022366404,,false,0
TONY SAMIR PENA GUZMAN,1128045991,,false,0
JORGE ESTEBAN ZULUAGA LEAL,1014266893,,false,0
JOSE LUIS VEGA DUENAS,1052407490,,false,0
LUIS DAVID ARRIETA LAMBRANO,1030664251,,false,0
JESUS DAVID CORREA CARVAJAL,1032471152,,false,0
CESAR CRISOSTOMO MARTINEZ PARRA,1018465812,,false,0
CARLOS ALBERTO PEREZ VALENCIA,8507098,,false,0
OSCAR EDILBERTO MESA TRUJILLO,74187220,,false,0
DAVID FORERO ARTUNDUAGA,80815227,,false,0
OSCAR ORLANDO ACEVEDO FERRER,1110500702,,false,0
DIEGO ANDRES JIMENEZ PABUENA,1030624649,,false,0
STEFANY CAROLINA MEDINA VILLANDIEGO,727333,,false,0
LADY JOHANNA CERVERA ZARATE,53114934,,false,0
CAMILO ANDRES MONDRAGON AMAYA,1018429304,,false,0
 FRANCISCO HERNAN CUERVO DURAN,1015453154,,false,0
MAIRON STIVENS JIMENEZ QUIROGA,1031144037,,false,0
GABRIEL RICARDO ALMANZA CAMPOS,1015406004,,false,0
LORENA JIMENEZ CAMPOS ,1022972130,,false,0
JULY KATHERINE TORRES ARDILA ,1001063060,,false,0
DORIS FERNANDA PISCO GAMEZ ,52447150,,false,0
FELIPE GONZALEZ ARISTIZABAL ,13743625,,false,0
BRIAN DUVAN GARZON PEREZ ,1033738978,,false,0
LUIS FELIPE ZARATE OSPINA ,79777995,,false,0
MARCIA PAOLA MURCIA TORRES ,52397899,,false,0
LENARD BRINEZ CABRERA ,5984397,,false,0
LISSETTE JUBELY ARIAS GARCIA,1036924615,,false,0
YENI ALEXANDRA MONTES BOTERO,1040038292,,false,0
CARLOS ALBERTO PATIÑO VALENCIA,1040031697,,false,0
DANIEL VANEGAS VARGAS,1053835477,,false,0
DEISY JEANNETTE ALBONOZ CASTAÑO,1036941834,,false,0
DEISY PAOLA BEDOYA OSORIO,1040035384,,false,0
DUVER ERNESTO ARROYAVE GARCÍA,98593594,,false,0
JOHN ALEXANDER GUERRERO CASTAÑEDA,1069734383,,false,0
EDGAR ALEXANDER SANCHEZ TIRADO,79875042,,false,0
LUIS CARLOS BELTRAN BUELVAS,92543180,,false,0
JAIME ENRIQUE PITRE SIERRA,1065598489,,false,0
KATERIN JOSE MARZAL BRUGES,1121331188,,false,0
SURY ERUSKA FERNANDEZ ORTIZ,1120744415,,false,0
LORAINE PAOLA MENDOZA ACUÑA,1065626275,,false,0
ANDERSON LOPEZ SANCHEZ,91542940,,false,0
ERINSON XABIER OROZCO ATENCIO,17958580,,false,0
MARIA ANGELA VANEGAS ARENAS,1065652384,,false,0
MILEIDYS MASSIEL TONCELATENCIO,1122816259,,false,0
JULIETH MARCELA LEONEL RUSSI,1032442025,,false,0
MARIA CAROLINA DUEÑAS ARENAS,52177040,,false,0
JHEIMY BIVIANA CÁRDENAS,1030531118,,false,0
 ANGIE CAMILA RODRIGUEZ,1019128534,,false,0
MAYKER GUILLERMO LOPEZ,1022361518,,false,0
JOHN ALEXANDER VARGAS LOPEZ,1030553343,,false,0
WALTHER STIVENS ZAPATA TABERA,1094919938,,false,0
SANDRA MILENA GIL NUÑEZ,1014217620,,false,0
NELSON ADRIAN ROJAS RUIZ,80492922,,false,0
MARCELA RUEDA,1032406714,,false,0
DANIEL MOSCARELLA,1004461133,,false,0
MANUEL MONTANEZ,1047375901,,false,0
WILSON FAVIAN AMAYA VARGAS,1010175263,,false,0
ANDRÉS FELIPE CASTAÑEDA SÁNCHEZ,1023014938,,false,0
JIMENA MUÑOZ,40047870,,false,0
CESAR AUGUSTO ARANGO GONZÁLEZ,91017291,,false,0
DIANA EDITH VILLEGAS RAMIREZ,39567185,,false,0
EDWIN ALEXANDER ALFONSO,1010189303,,false,0
CRISTIAN CAMILO SILVA RAMIREZ,1014249810,,false,0
JOHN NICOLAS AFANADOR BENAVIDES,1018445907,,false,0
JOAN DE JESUS SANCHEZ CANDANOZA,1129511907,,false,0
NICOLAS GALINDO MARROQUIN,1018434779,,false,0
JUAN PABLO MANRIQUE ERAZO,1030575677,,false,0
INGRID PAOLA GONZALEZ AMAYA,1015433517,,false,0
NATALY MONROY LOPEZ,1018449732,,false,0
JAVIER ANDRES BECERRA PUERTO,1018478371,,false,0
CRISTIAN BARRERA CERON,1013619242,,false,0
FABIANY GRISALES,1020745224,,false,0
CAMILO ANDRES YEPES,1015443350,,false,0
ESTEFANIA OCHOA GIRALDO,1112770836,,false,0
SARA MORENO CORTES,1032429271,,false,0
OMAR FELIPE PALACIOS,1026277276,,false,0
LISLE ADRIANA GARCIA MILLAN,37441410,,false,0
ALDEMAR LEONARDO NIETO SALGADO,79805635,,false,0
MAURICIO HERNANDO AMAYA BARRERA,79621513,,false,0
ANDRES ALEXANDER CANGREJO BERMUDEZ,79755430,,false,0
JORGE ERNESTO MURCIA MARTINEZ,80189676,,false,0
HECTOR EMILIO MURCIA HIGUERA,80173413,,false,0
NESTOR ALEJANDRO WAGNER GOMEZ,1070304006,,false,0
CARLOS GUSTAVO CASTIBLANCO LEMUS,79359543,,false,0
STEFANY ALEJANDRA ELVIRA ROJAS ACOSTA,1102719193,,false,0
MARIA MERCEDES MORENO SALAZAR,1085249380,,false,0
MARCELA MAZUERA ROSAS,36752587,,false,0
PAOLA ANDREA ARTURO RODRIGUEZ,27082046,,false,0
LYNA MARIA ISABEL HERNANDEZ PANTOJA,27254159,,false,0
HECTOR FERNANDO LASSO GUERRERO,12976538,,false,0
MARIA JOSE BERNAL RUIZ,55163149,,false,0
YANETH BETANCUR SANCHEZ ,41924436,,false,0
KAREN DANIELA BONILLA CHAVES ,1144195293,,false,0
CARLOS ANDRES ZABALA COBO ,10496125,,false,0
MARIA EMIR IBARRA OBANDO ,31389861,,false,0
MARIA CAMILA VALDERRAMA REYES,1090499138,,false,0
ELIECER GARCIA CRUZ ,16682933,,false,0
PAULA ALEJANDRA PINILLA BAUTISTA ,1019117977,,false,0
ANDRES CAMILO CASTROS CASTIBLANCO ,1019062017,,false,0
JORGE ORLANDO RODRIGUEZ MEDINA,1026289824,,false,0
MARLIN SOLANGE CASTILLO ANTONIO,1018508653,,false,0
DIANA KATERINE CANO TORO,1015448267,,false,0
SANDRA CATALINA CORREAL ZULUAGA,1014250251,,false,0
SANTIAGO FELIPE DIAZ VALERO,80134987,,false,0
LUIS MIGUEL MANCIPE NOREÑA,1020740545,,false,0
JENNYFER BELTRAN BETANCOUR,1030547215,,false,0
JESSICA PAOLA HURTADO PULIDO,1024528059,,false,0
LUZ MAYURI DIAZ CAMARGO,1032461541,,false,0
ARNUALBEIRO ORTIZ LEMUS,79500886,,false,0
DIEGO ARMANDO VANEGAS BASTIDAS,1031126639,,false,0
JHON SEBASTIAN GALVIS PARRA,1032438298,,false,0
HECTOR ANDRES CANAS MARTINEZ,1026560852,,false,0
VIVIAN YISETH PABON ROMERO,1030575323,,false,0
LAURA MARCELA MARTINEZ,1019034234,,false,0
WILLIAM ALBERTO CHAVARRIA,1019022337,,false,0
DANIELA PALOMARES POTES,1144097656,,false,0
ROCIO PRADA CARDENAS ,1020753999,,false,0
ANA MILENA LOPEZ ,67000365,,false,0
EUGENIA PUERTA TOBON,66922167,,false,0
KATHERINE RAMOS DELGADO,1130674288,,false,0
KATHERINE VARGAS BUITRON,1144080377,,false,0
DAVID CAMILO PINTO ROZO,1018459272,,false,0
LUIS FERNANDO GONZALEZ ZAPATA,1024505680,,false,0
YEILY ESPEJO RODRIGUEZ,1010202277,,false,0
JHON JAIRO,1033690036,,false,0
DAVID RICARDO LEON BALLEN,1018460557,,false,0
CAMILO ANDRES GOMEZ,1014250218,,false,0
DIEGO ALEJANDRO RODRIGUEZ MARTINEZ,10001,,false,0
TANIA VANESSA PEREZ ROZO,10002,,false,0
JHON MOSQUERA,1020733233,,false,0
LILIANA RAMIREZ,1018451835,,false,0
EDGAR LEONEL PULIDO,1023871428,,false,0
ANA MILENA MOSQUERA,53106047,,false,0
YERALDI PAOLA CABREJO SANCHEZ,1030563307,,false,0
JUAN DAVID BUITRAGO GOMEZ,1022368342,,false,0
BRIGITTE ALEJANDRA GOMEZ REINA,1015434659,,false,0
CINDY ROCIO DIAZ CARVAJAL,1026564225,,false,0
AYDEE DAHIANNA ROJAS RICO,1018493817,,false,0
RUBY ESMERALDA PEÑA GOMEZ,1022965380,,false,0
FARIANNYS MICHELL DAZA BOLIVAR,1233692660,,false,0
LUIS SEBASTIAN RAMOS ARANGO,1022977380,,false,0
KAREN LORENA PINILLA RIAÑO,1026279864,,false,0
JUAN PABLO SEPULVEDA NIÑO,80183593,,false,0
JOSE FRANCISCO ROBLES DONADO,18968578,,false,0
HENRY SAUL PEÑA,1020763290,,false,0
NICOLAS VERÁ,1026292658,,false,0
ANDRES FONSECA,1032440842,,false,0
NATALIA MARQUEZ CONTRERAS,1049633530,,false,0
RAFAEL GUTIERREZ ZARATE,7229159,,false,0
JULIO CESAR BARRERA MONTAÑA,74185596,,false,0
IRMA LAUDITH BARBOSA GONZALEZ,27984844,,false,0
HOLLMAN ANDRES VARGAS,1052395109,,false,0
NANCY POLANCO VIVAS,55062031,,false,0
ISABEL CRISTINA AGUIRRE,21548463,,false,0
DANIELA OSORIO HERNANDEZ,1214733001,,false,0
DANIELA ECHAVARRIA,1152449348,,false,0
MANUELA RUA  TABORDA,1017242611,,false,0
CAROLINA VALENCIA VALLEJO,1040732922,,false,0
PAOLA ANDREA SERNA,1017249649,,false,0
TANIA VANESSA ROA HERNANDEZ,1018474197,,false,0
LAURA MARIA FONSECA ROZO,1015430119,,false,0
ANDREA JULIETH PEREZ RIOS,1019073580,,false,0
INGRID VANESSA ORTIZ VERANO,1019128720,,false,0
LAURA OSORIO BARRAGAN,1032477632,,false,0
LIZETH PAOLA TRIVIÑO GARCIA,1016037484,,false,0
OSCAR FABIAN PEDRAZA MONROY,1019009292,,false,0
ANGIE PAULINE LOZANO MUÑOZ,1030603876,,false,0
YENNY MILENA MALAGON MAYORGA,1013648300,,false,0
VICTOR ALFONSO HERRERA CARRILLO,1023874242,,false,0
LUZ STELLA RODRIGUEZ ALARCON,52497759,,false,0
ARMEDT ROCIO GARCES DUQUE,39707417,,false,0
CINDY JOHANNA CASTIBLANCO NOCUA,1019026457,,false,0
CLAUDIA PATRICIA QUIROZ PEREZ,52302959,,false,0
CARLOS ANDRES NARVAEZ ISAZA,1088240144,,false,0
LEIDY MARCELA SIERRA BLANCO,52987429,,false,0
EDITH MARGOTH HERRERA CASTRO,52773301,,false,0
IVONNE NATHALIA GALLO,1014236089,,false,0
IVI NATHALY MORENO LOPÉZ,1070972711,,false,0
ANGEE KATHERINE CLAVIJO,1032432737,,false,0
JORGE HUMBERTO GOMEZ ARTUNDUAGA,80904698,,false,0
ADRIANA FUQUENE CONTRERAS,1090377831,,false,0
MARTHA LUCIA AGUIRRE RESTREPO,51816778,,false,0
INGRID LILIANA BOBADILLA RODRIGUEZ,51956110,,false,0
CARLOS IVÁN CHOCONTÁ,79452137,,false,0
MARTHA LILIANA ARIAS CORDOBA,55157286,,false,0
MARIA VALENTINA MARIN ALVAREZ,1075302487,,false,0
VICTORIA RODRIGUEZ SANTANILLA,1110598005,,false,0
NINI YORLENDY SABOGAL ,36307618,,false,0
OLGA LUCIA CAÑON MORA,65763918,,false,0
STEFANNY LOPEZ CELIS,1019086020,,false,0
LINA MARIA DIAZ OROZCO,1026265151,,false,0
CAMILO ANDRES ALFONSO TRIANA,1023903623,,false,0
JULIAN CORREA ALONSO,10272962,,false,0
JOHANNA ELIZABETH RAMOS ALEA,1023896638,,false,0
JAVIER IGNACIO GOMEZ RESTREPO,15507751,,false,0
CAROLINA MONTOYA CASTAÑO,32207055,,false,0
JORGE ANDRES MIRA ARDILA,1152451425,,false,0
FABIO ANTONIO TAMAYO,71645869,,false,0
ALEJANDRA MONTOYA MARIN,1216714018,,false,0
PAULA ANDREA TABORDA RUA,43627698,,false,0
ANGIE MARCELA ZULUAGA BOLAÑOS,1037640405,,false,0
LAURA CASTRO CARDONA,1128283765,,false,0
CAROLINA PALACIO VALDERRAMA ,1152438089,,false,0
CINDY PAOLA BOHORQUEZ,1037618196,,false,0
JADIR ESTEBAN ORTIZ BURITICA ,71241447,,false,0
DANIEL ALONSO PARRA ECHEVERRI,1152687713,,false,0
JUAN FERNANDO GALLEGO SANCHEZ ,1128282561,,false,0
YANIS MARGEIDIS MONTERROZA GUEVARA,1017140994,,false,0
JESICA HERNANDEZ PORRAS,1152447025,,false,0
GUSTAVO ROJAS,79964660,,false,0
ANDREA VARÓN TORO,1014242168,,false,0
MARIA PAULA TELLLEZ,1022377117,,false,0
LINA FERNANDA PASTRANA,1075267116,,false,0
LILIANA MÁRQUEZ VEGA,53063734,,false,0
JAIME JAHIR CORTES,79670697,,false,0
JAIRO TAMARA,7228087,,false,0
MARIO LOAIZA,79693637,,false,0
MICHELLE LEONOR CAICEDO ESPINEL,1013669645,,false,0
GUIOVANNY LAVERDE ,80151580,,false,0
BETTY JAZMIN RINCON GARCIA,36314345,,false,0
LAURA XIMENA GOMEZ APONTE,28540531,,false,0
ASTRID MILENA SANCHEZ,52228200,,false,0
MONICA FERNANDA PINZON,63516485,,false,0
SONIA AMPARO URUEÑA,1054539312,,false,0
VICTOR MANUEL SANCHEZ REYES,1022358437,,false,0
LUIS ALBERTO ESPINDOLA BUITRAGO,1014178284,,false,0
JUAN DAVID CELIS NUÑEZ,1090477444,,false,0
JUAN SEBASTIAN GALVIS CALDERON,1033737524,,false,0
ANGIE ALEXANDRA CASTAÑEDA DUSSAN,1010166940,,false,0
YULY MARCELA OVALLE GOMEZ,1019075798,,false,0
JUAN ANTONIO RAMIREZ BUITRAGO,1053335802,,false,0
DEYANDERLI CASTRO GUARACA,41957288,,false,0
BRYAN ANTONIO QUIROZ MUÑOZ,1030608306,,false,0
JHON ALEXANDER PINEDA ARIAS,1053333606,,false,0
EDUAR DUBAN GONZALEZ JOYA,1036624424,,false,0
ANGIE CAROLAIN BENAVIDES DUARTE,1010222402,,false,0
MANUEL ALEJANDRO MEDINA CASTAÑEDA,1015452603,,false,0
ROSA ANGELINA CANTOR MEDINA ,1023960732,,false,0
JUAN SEBASTIAN VALVERDE ARRIETA,1018486939,,false,0
JULIAN CAMILO MACANA RODRIGUEZ,1007186368,,false,0
SINDY PAOLA MORENO IBAÑEZ,1022980148,,false,0
ANGIE KATHERINE VANEGAS GIL ,1013671037,,false,0
JOHNN ALEJANDRO NARANJO NARIÑO,1022980960,,false,0
DANIELA PAOLA GARCES CUBILLOS,1073240803,,false,0
DANIELA MARIN HOLGUIN,1033810261,,false,0
EDWIN FABIAN TOVAR GONZALEZ,1033737212,,false,0
SERGIO ISMAEL PESTANA RICO,1010223560,,false,0
CINDY LORENA BAUTISTA FRANCO,1033740414,,false,0
ANA MARCELA SANCHEZ PAREDES,52950633,,false,0
AILEEN PAOLA GUERRERO MENDOZA,1016034580,,false,0
MARTA AILED SOTO SOTO,43800024,,false,0
DIANA CAROLINA CUADROS SALAZAR,1049795847,,false,0
JULY CAROLINA MIRANDA BLANCO,52961768,,false,0
MARTHA BIBIANA ESPINOSA ZOTA,51975597,,false,0
ENRIQUE NEIRA BUITRAGO,5823128,,false,0
CARLOSDAVID PACHECO,80870860,,false,0
JAVIER GUANEME,79691719,,false,0
DIEGO ALEJANDRO LOPEZ OJEDA,1030582346,,false,0
JUAN MANUEL MARIN,1018436380,,false,0
CAMILO SEVERICHE,1020788995,,false,0
DIEGO ALFONSO RICAURTE,1075871649,,false,0
JOHN ALEJANDRO GOMEZ OCHOA ,1017148084,,false,0
CARLOS ALBERTO VILLEGAS BERRIO,71293246,,false,0
HERNAN FELIPE CARVAJAL MANTILLA,71781868,,false,0
JORGE MARIO VASQUEZ LONDOÑO,71378048,,false,0
LUIS ALFONSO SANCHEZ BETANCUR,8105936,,false,0
JOHAN SEBASTIAN SANCHEZ ESPINOSA,1037588541,,false,0
DIOSDADO ANDRES MARTINEZ MARTINEZ,1037571862,,false,0
MARCELLO ALFONSO DE VIVO CREAZZO,1032462378,,false,0
JOSÉ NICOLÁS GÓMEZ VALLEJO,14622033,,false,0
JUAN CAMILO MOSQUERA URIBE,1039446867,,false,0
DAVID ALEJANDRO SUÁREZ RUIZ,1052392320,,false,0
LUIS CARLOS JOSE GOMEZ,1069736181,,false,0
WILSON HERNANDO ALFONSO VALBUENA,79461592,,false,0
FRANCISCO ERNESTO ACEVEDO AGUILAR,1032437006,,false,0
ANGIE JINETH FONSECA GARCIA,1022984899,,false,0
VICENTE HURTATIS TORRES,80755181,,false,0
CAROLINA SANCHEZ MENDIVELSO,52846265,,false,0
SERGIO FELIPE DURAN GARCIA,1136885513,,false,0
KARINA ANDREA BELTRAN PEREZ,1016043614,,false,0
JONATHAN JAVIER ALFONSO GAMBA,1010187932,,false,0
EDGAR LEON,79464251,,false,0
CINDY MARCELA GALVIS SARMIENTO ,1098772200,,false,0
ANDREA KATHERINE AGUILLON,1102364265,,false,0
JONH JAIRO GARCIA CARDENAS,79722122,,false,0
YENEYRE ACEVEDO VILLARREAL ,63533037,,false,0
MELISSA CUELLAR MENDEZ,1098686613,,false,0
JENNY SIERRA CORTES,31585332,,false,0
LUIS HERNANDO BAUTISTA SOTO ,1098654536,,false,0
GERARDO ANTONIO LAMUS ROJAS,79362267,,false,0
JOSE LIBARDO RAMIREZ SAAVEDRA,80202111,,false,0
HANS SEBASTIAN MUÑOZ GARZON,1022387691,,false,0
JORGE ARMANDO DUARTE GARCIA,11235892,,false,0
DORIS EMILIA QUINCHE PALACIOS,51814205,,false,0
CRISTIAN CAMILO SANTAMARIA GONZALEZ,1121894960,,false,0
ESNEIDER BAUTISTA HERRERA,1012450981,,false,0
CARLOS ANDRES DIAZ GARAY,14137307,,false,0
JUAN CAMILO ANDRES CASTILLO PERDOMO,1110494605,,false,0
JUAN CAMILO PERDOMO,1110454267,,false,0
FERANCISCO JAVIER ROMERO GARCIA,1110478307,,false,0
JOHAN SEBASTIAN MURILLO ARIZA,1110486379,,false,0
JOHN JAIRO CRUZ PEDRAZA,93390913,,false,0
BLEYMER DIRCEW CAMERO TAVERA,1110510314,,false,0
ANDRES DAVID DUQUE FRANCO,1065617802,,false,0
LUCIA CAROLINA VALLE MEJIA,1065574450,,false,0
ANDRES FERNANDO MAHECHA DUARTE,1065581139,,false,0
CIRO ALBERTO GOMEZ ALARCON,77093156,,false,0
GUSTAVO ADOLFO QUINTERO CASTRO,84091835,,false,0
IVETTE KARINNY RIVERA LOBO ,49717568,,false,0
DIEGO ARMANDO PEREZ MENDOZA,1065572326,,false,0
VALERIA GAVIRIA MORALES ,1144190540,,false,0
BRAYAN ANDRES PLAZAS,1130603736,,false,0
SERGIO PINZON,1107054405,,false,0
ANYELTIH ROJAS GRIJALBA ,29120101,,false,0
THIOLYS YELINA BUSTOS,1143847561,,false,0
CARLOS IVAN ROJAS OLAYA,94527564,,false,0
LIZETH JULIANA AGUDELO ZAPATA,10016,,false,0
CARLOS ANDRES MORA MUÑOZ,80807457,,false,0
JUAN PABLO ALDANA FONSECA,1053605552,,false,0
ADRIANA MARITZA IBARRA VILLAMIZAR,63544565,,false,0
YEIK AIRON SANTAMARIA MORALES,1013594060,,false,0
ANDRES FELIPE NUÑEZ CHAPARRO,1014249600,,false,0
OSCAR GIOVANNI QUINTERO,80726710,,false,0
DANIELA MUÑOZ MAMBUSCAY,67030280,,false,0
ROSEMBERG AGUDELO,16750890,,false,0
FABIO HERNAN VEGA,6254242,,false,0
ERIKA PAVA,38143364,,false,0
LUISA FERNANDA HERNANDEZ SOLANO,52732991,,false,0
MONICA CUCUNUBA,52095521,,false,0
ANA PATRICIA PEÑA,41909251,,false,0
EIDER ANDRES GALVIS,16289264,,false,0
VICTOR ALFONSO BELTRAN,80920473,,false,0
EDGAR HERNAN HIDALGO CONTRERAS,1012357806,,false,0
ELIAS ALFONSO BEJARANO,86086468,,false,0
JOHN PABLO CALVO,1018418417,,false,0
SERGIO ANDRES VILLAMIZAR,13277594,,false,0
MIGUEL ANGEL VASQUEZ,1019010626,,false,0
DIEGO FERNANDO CORTES AVILA,1032451546,,false,0
CRISTIAN ACOSTA DAZA,1023916675,,false,0
JUAN JOSE RINCON HERNANDEZ,79500384,,false,0
GLORIA PATRICIA CAMARGO GUZMAN,52875001,,false,0
LIZ TATIANA LOPEZ BEDOYA,1015393146,,false,0
JENNIFER ALEXANDRA ZAMUDIO MONTEFRIO,1032433805,,false,0
BRYAN GHERARD AVILA QUINTERO,1024510404,,false,0
MARIO ANDRES CHARRY LOPEZ,80084517,,false,0
JULIO CESAR AVILA GONZALEZ,80760537,,false,0
IVONNE ANGELICA RUBIANO BEDOYA,52325239,,false,0
ANDRES FERMIN PITRE JIMENEZ,1128060567,,false,0
JAIR ANDRES DE LA HOZ ROJAS,1023881928,,false,0
LAURA NARVAEZ,1214719667,,false,0
JOHANA LONDOÑO GRISALES,1037614709,,false,0
CAROLINA DIAZ ALVAREZ,1013617610,,false,0
LAURA ANGEL ZULUAGA,1017126637,,false,0
ESTEFANY ALEJANDRA RAMIREZ PEDRAZA,1015447527,,false,0
ALEJANDRA OSORIO SANCHEZ,1053810814,,false,0
LAURA NATALIA BERNAL ROMERO ,1031140770,,false,0
EVIS KATERINE LÓPEZ MARÍN ,1010190381,,false,0
EDISSON JAVIER CRUZ HERNÁNDEZ ,1012422463,,false,0
LILIANA PAOLA RODRÍGUEZ RODRÍGUEZ,1026259784,,false,0
ANGIE PAOLA MUÑOZ CICERY,1016035953,,false,0
LEIDY PAOLA CHACÓN RICO,1013669544,,false,0
CRISTIAN FELIPE RAMIREZ CRUZ,1072168673,,false,0
ANGIE JULIETH BOHORQUEZ GIL,1136884882,,false,0
CAMILA ALEJANDRA LEON RICO ,1026277333,,false,0
SERGIO ALEJANDRO MORALES MADRIGAL,80252050,,false,0
JOSEPH LEONARDO PEREZ PLATA,1018413480,,false,0
DIANA CATALINA GONZALEZ QUEVEDO ,1020723885,,false,0
GINDRY LIZETH CEPEDA REINA,1016062792,,false,0
JOHN BAYRON ZAMBRANO BELTRAN,1019082229,,false,0
CAMILO NAUSA ACUÑA,1014227729,,false,0
HECTOR MANUEL QUIROGA NAVARRETE,1019053240,,false,0
GERMAN BELTRAN CARDOZO,80654223,,false,0
NATALIA MALAGON CAMARGO,1015456384,,false,0
ASTRID ALEJANDRA CASTAÑEDA SABALA ,1092355417,,false,0
CYNTHIA ROCIO ROMERO,1099342514,,false,0
JHENNY VIVIAN SALINAS ANGULO,1018426381,,false,0
ERIKA GAVIRIA DELGADO,1018462802,,false,0
LINA MAYERLY VARON,1032466692,,false,0
CATALINA DUARTE,1020759688,,false,0
MARIA CAMILA CANDELA,1016076715,,false,0
FREDY  ALEXANDER LADINO,1073167160,,false,0
IVAN DARIO GOMEZ,1026283358,,false,0
ESTEFANIA ALEXANDRA GARCIA,1020754742,,false,0
YESENIA ISABELA PARRA,1019097886,,false,0
AUDREY CHAPARRO VARGAS,1118537607,,false,0
WILLIAM TEOSORO QUIMBAYO MENDOZA ,80745921,,false,0
ANDRES LEONARDO MENDOZA JAIMES,1090411973,,false,0
LARRY JAYSON NIETO ARGUELLO,74790032,,false,0
TATIANA MORALES CASTELLANOS ,53039217,,false,0
KATHERINE SOTO MURCIA ,1118775346,,false,0
CLAUDIA YESMIN TORRES APACHE ,1116544523,,false,0
LEIDY DAYANY RODRIGUEZ MORENO,33481617,,false,0
LUIS ERNESTO WALTEROS CAMARGO,1118530777,,false,0
ELCY ANDREA FONSECA MOLINA,47437069,,false,0
CLAUDIA JIMENA MARIÑO DIAZ,47439404,,false,0
DEIVID TAFUR MARTIN,1023925097,,false,0
ANDREA MAYERLY MORENO VASQUEZ,1026270900,,false,0
DANIEL CHACON MALAVER,1019101175,,false,0
YEISON CAMILO DUARTE GAITAN,1031157107,,false,0
JESSICA MARCELA JIMENEZ RAMIREZ,1014189407,,false,0
ANNGIE VALERIA LEON ANTOLINEZ ,1014287589,,false,0
JUAN CAMILO DAZA RODRIGUEZ,1018476135,,false,0
NATALIA PEDRAZA CRUZ,1032472620,,false,0
JUAN CAMILO RORIGUEZ DIAZ,1033743302,,false,0
GABRIELA ESCALLON ZARATE,1014293971,,false,0
MAIRA ALEJANDRA RUBIO VELA,1031147357,,false,0
JOSE DAVID GUZMAN ORTEGA,1129582900,,false,0
ANTONIO SANCHEZ VILLAMIL,8743598,,false,0
MARLON CHAPARRO CABEZA,72053547,,false,0
HERNANDO FELIPE HUERTAS RESTREPO,72345866,,false,0
LUIS ALBERTO MAY CABEZA,1123634429,,false,0
JUAN CARLOS BOLAÑO,8724756,,false,0
JUAN CARLOS VILLA SARMIENTO,72231717,,false,0
OSCAR ANDRES PAEZ PACHECO,1140829010,,false,0
KALID LOPEZ BARRAGAN,1062676313,,false,0
RAMIRO EDUARDO VIDES MERCADO,1143129157,,false,0
ANTONIO JOSE GARCIA ORTIZ,1045735109,,false,0
ERIKA RONCERIA LOPEZ,52747946,,false,0
MONICA ANDREA MONTAÑEZ,1010164783,,false,0
CRISTIAN ALEJANDRO RUIZ,1016084118,,false,0
SHARON NICOLLE GIL ARIZA,1018453533,,false,0
ANDRES GUILLERMO GORDON ,80054048,,false,0
LINA MARIA TOCUA,1019066700,,false,0
WILLIAM MAURICIO RAMIREZ,1076622444,,false,0
OSCAR RICARDO QUESADA,1023909339,,false,0
KELLY PEÑALOZA,1010220360,,false,0
GERMAN DARIO RISCANEVO MONGUI,79575383,,false,0
MELANIE MINA MADERA,1022424501,,false,0
CLAUDIA MILENA ARIAS LEON,1010194199,,false,0
LAURA ESTEFANIA VEGA AVELLANEDA ,1014230933,,false,0
MARIA DEL PILAR QUUINTERO HUERTAS ,1018436043,,false,0
JULIETH PAOLA QUITO ,1015450235,,false,0
MARTHA ISABEL DIAZ ,1018464728,,false,0
DIANA MARCELA DIAZ BALLESTEROS ,1032463072,,false,0
WILLY FERNEY VELANDIA FRANCO ,1012378632,,false,0
LEIDY JOHANA CARDENAS ALFONSO ,1018460583,,false,0
LUZ MIREYA CASTRO ,52917229,,false,0
JEYSON FABIAN IJAJI LEON ,1032407653,,false,0
JOHN ALEXANDER CHAPARRO ,1014270997,,false,0
WILSON SACRISTAN CASTIBLANCO ,80832825,,false,0
JULIAN CAMILO VARGAS MARTINEZ,1019079370,,false,0
NAYIBE ACERO TORRES ,1022378592,,false,0
JOHAN SEBASTIAN LAZO HERNANDEZ,1015461639,,false,0
ANA MARIA GUZMAN  REALPE,1010237653,,false,0
JOSE LUIS SANCHEZ ANGARITA,1032431214,,false,0
FABIAN QUINTERO LOPEZ,1022948162,,false,0
RAFAEL GUILLERMO PEREZ GUERRERO,1031152129,,false,0
FABIAN CAMILO GUERRERO SOLER,80120286,,false,0
JOHANNA JULIETH HERNANDEZ LOPEZ,1013606584,,false,0
JOAQUIN EDUARDO CUBILLOS GOMEZ,80732225,,false,0
JOHN HELBERTH ALDUARH BOHORQUEZ ARENAS,1054800791,,false,0
CRISTIAN OSWALDO MALAMBO ORTIZ,1013652877,,false,0
EDGAR AUGUSTO RODRIGUEZ RODRIGUEZ,79593630,,false,0
ADRIANA ROCIO DAZA ALONSO,1121819033,,false,0
OLGA LUCÍA MARTÍN TORRES,52375209,,false,0
MARTHA LEAL RODRÍGUEZ,39559826,,false,0
MONICA DELFINA CELIS VARGAS,39561076,,false,0
YESID ROLANDO PEÑA VALBUENA,7318080,,false,0
PAOLA MELISSA ROJAS CHAVES,39580862,,false,0
EDGAR ALFONSO DIMATE,11451187,,false,0
LEIDY ARGENIS CORTÉS RUIZ,1070601460,,false,0
JOHAN FELIPE OSPINA PASTRANA,1070604722,,false,0
EDWIN LEONARDO GONZÁLEZ GONZÁLEZ,1033771065,,false,0
LUISA FERNANDA VILLARREAL PRADA,1070598596,,false,0
MARIA ALEJANDRA ZAMBRANO RODRIGUEZ,1085290107,,false,0
DIEGO FERNANDO GUERRERO OSORIO,13069036,,false,0
MARIO ANDRES PORTILLA BOLAÑOZ,1085296830,,false,0
CARLOS ARTURO NARVAEZ RIVERA,98386509,,false,0
RICARDO ANDRES JIMENEZ GUERRERO,1085291560,,false,0
DAYAN STEFANIA ROMO OSORIO,1085299602,,false,0
ANDREA LORENA NARANJO SUAREZ,1085313029,,false,0
BETTI DEL CARMEN ENRIQUEZ ROSALES,59825971,,false,0
SARITA VANESSA PARDO URBANO,1007304871,,false,0
NANCY MAYERLY CASTIBLANCO VENEGAS,52348127,,false,0
KATHERINE PARDO ,1015431680,,false,0
VIVIANA ANDREA BECERRA,1013620982,,false,0
IVETH KATHERINE MALAMBO,1030563843,,false,0
DIEGO RODRIGUEZ GAONA,1020768614,,false,0
JUDY ESLEY BERNAL SIERA,1070944709,,false,0
ANGIE TATIANA TRIANA AREVALO,1016061880,,false,0
MIGUEL RICARDO ESTRELLA RIVEROS,80873736,,false,0
TANIA STEFANY ARIZA BALLESTEROS ,1032455302,,false,0
NELSON ENRIQUE ANTORVEZA CURREA,79846049,,false,0
 MARIA OTILIA SANTAMARIA PENA,51922075,,false,0
GABRIEL FELIPE GOMEZ ROSERO,1019075074,,false,0
JHENNY LICETH CARDENAS CASTRO,1016059719,,false,0
AURA CRISTINA MUÑOZ GUZMAN,1090458090,,false,0
SONIA CAROLINA URREGO PEREZ ,1032484701,,false,0
PAOLA ANDREA SILVA BARON ,1033717673,,false,0
LUISA MARITZA SOCHA ORTIZ,51729893,,false,0
ANDRES FELIPE MONTENEGRO LEMUS,1032484847,,false,0
JUAN CARLOS GARCIA SANABRIA ,79510388,,false,0
LIZETH GERALDINE DIAZ MANRIQUE,1013664027,,false,0
ESPERANZA VARGAS BERNAL,52115438,,false,0
ANDREA MILENA MARTINEZ JIMENEZ,1013620064,,false,0
MARTHA CECILIA BAYONA MENDEZ,51909515,,false,0
ANGELA DEL PILAR RODRIGUEZ BERNAL,52431781,,false,0
JENNIFER ALZATE ALZATE,30225546,,false,0
IVONNE MILENA GOMEZ PEDREROS,1013625572,,false,0
NANCY ESPERANZA PUENTES REYES,1049622607,,false,0
LUZ ESTELLA ORTEGA MULETT,22865027,,false,0
AURA LORENA CASTELLANOS CHICA,53930907,,false,0
CLAUDIA PATRICIA NOVOA CAÑON,52271222,,false,0
CINTIA MADELIN CONTRERAS GUERRERO,1032413296,,false,0
MILENA MARGARITA GONZÁLEZ,1016061853,,false,0
MARITZA LICETH GUERRERO MILLAN,52321693,,false,0
LIZETH CATHERINE GARZON PIRABAN,1072714595,,false,0
VICTOR HUGO RENDON ORTIZ ,9872723,,false,0
OSCAR ANDRES LOPEZ MORALES ,1087551178,,false,0
SERGIO STIVENS GUEVARA GARCIA,1088311192,,false,0
JHON ALEXANDER MOLINA CORREA ,18532822,,false,0
CARLOS MARIO GUERRERO RAMIREZ,9870486,,false,0
HECTOR FABIAN OSPINA RAMIREZ ,79910635,,false,0
OSCAR FRANCO RAMIREZ ,1088316885,,false,0
PABLO ANDRES DUQUE VELASQUEZ,10019200,,false,0
STIVENSON MARIN OROZCO ,1002938600,,false,0
CESAR AUGUSTO BUITRAGO GONZALEZ,75092735,,false,0
CARLOS EDUARDO MOLANO GIRALDO ,1053816294,,false,0
OSCAR JAVIER GRANADA GONZALEZ,10002737,,false,0
MARIA ALEJANDRA DELGADO REINA,1031144667,,false,0
JIMMY MATEO CANCELADO ARZAYUS,80098778,,false,0
LEIDY KARIME TRIANA RAMIREZ,1016038949,,false,0
DIEGO LEONARDO ALARCON ALARCON,80204781,,false,0
OSCAR LUIS SANCHEZ TORDECILLA,79513288,,false,0
ELKIN ALVARO LOPEZ MORALES,19001962,,false,0
CRISTIAN MENDEZ,80212936,,false,0
OSCAR ANDRES AVENDAÑO,80085852,,false,0
MARIA CAMILA JORGE ORTEGA,1023884575,,false,0
DAVID ALBERTO ESCOBAR,12754747,,false,0
CARLOS FERNANDO AGUILERA,80770486,,false,0
ALFREDO REYES DORIA,10901144,,false,0
ARNOLD VLADIMIR HERNANDEZ GOMEZ,1069099403,,false,0
EDWIN VEGA GOMEZ,1030536802,,false,0
MAURICIO ALVAREZ MORENO,1015997293,,false,0
RAFAEL FERNANDO CHINCHILLA MESA,1010218357,,false,0
DIEGO FERNANDO CANCINO SUAREZ,80874075,,false,0
LEONARDO FABIO SALCEDO BUSTOS,80801704,,false,0
DISLE ALCILA MALAGON,52349970,,false,0
JUAN MANUEL BECERRA JIMENEZ,1030602719,,false,0
NANCY ESTELLA CARTAGENA CUELLA,51723552,,false,0
LUIS IGNACIO BASTIDAS,1072638406,,false,0
YENNY CRISTINA HUERTAS,52368576,,false,0
HECTOR AUGUSTO MORALES BERMUDEZ,79302638,,false,0
JORGE LEONARDO PINTO,1118827834,,false,0
SEBASTIAN MARTINEZ,1053768643,,false,0
JULIETH SOLANYER GUERRERO,1022352045,,false,0
CARLOS ANDRES MARTINEZ BEDOYA,1130622199,,false,0
MAIRANELA RAMIREZ,1016011012,,false,0
WILLIAM VILLAMIL,1053333508,,false,0
JORGE CRUZ,79451741,,false,0
LYDA MARITZA ROJAS,53166804,,false,0
ANDRES MAURICIO GALINDO MORENO,1032501481,,false,0
LILIAN ROCIO LOPEZ ARENAS,1018419399,,false,0
YULDER FABIAN URQUIJO NARVAEZ,1090432204,,false,0
MARIA PAULA DULCEY RAMIREZ,1116796872,,false,0
RICARDO LEAL EREGUA,1116783175,,false,0
MARYANI CACERES MEDINA,1116796937,,false,0
HEIDY LIZETH BERNAL,1031132588,,false,0
JOSE RAUL CARDENAS BASLLESTEROS,13508701,,false,0
INGRID JULIANA VARGAS RINCON,1095918659,,false,0
YARITZA IVETTE NIÑO PACHECO,1116495765,,false,0
LUVIS NAIROVIS MARTINEZ,1116786633,,false,0
INGRID MARCELA LINARES,1116786340,,false,0
NANCY ESPERANZA OJEDA QUINTERO,68290193,,false,0
VICTOR KEVIN LANDAETA VASQUEZ,17596166,,false,0
EDUAR JESUS MALDONADO TORRES,17593625,,false,0
AURA NATALI ACOSTA PEREZ,1106782930,,false,0
ARACELLY YARA ACOSTA,65742115,,false,0
LUZ DENEBY VERGARA,65747095,,false,0
ANDREA LICETH SAENZ CRUZ,65631565,,false,0
CECILIA GIRON RINCON,38261955,,false,0
ROSA DE JESUS BARRETO LOZANO,65744425,,false,0
CLEMENCIA PULECIO HERNANDEZ,65770426,,false,0
DIANA FERNANDA MOGOLLON MOGOLLON,38140312,,false,0
LIGIA MENDEZ DIAZ,65498598,,false,0
SONIA STELLA RUIZ GARCES,65735006,,false,0
LEIDI JHOANA ECHEVERRY PRADA,28551873,,false,0
WENDY JHOANA PEREZ RAMIREZ,1015454160,,false,0
MARIA DE LOS ANGELES ROMERO TIQUE,1032430813,,false,0
CESAR AUGUSTO VARGAS ESCOBAR,79714018,,false,0
MAYERLI ROMERO DÍAZ,1032449588,,false,0
HUMBERTO PATARROYO OSORIO,79671174,,false,0
CARLOS ANDRES BECERRA MADERA,1026564987,,false,0
PAULA ANDREA RESTREPO SUAREZ,1010193370,,false,0
MAURICIO URREGO BOTIA,80195916,,false,0
LUIS ALEJANDRO SOSA BEDOYA,1007045561,,false,0
MAGNOLIA FORERO ESPITIA,52826975,,false,0
DEINYS MARIA  RANGEL CARRASCAL,1065661308,,false,0
LAINIZ MARTINEZ SANCHEZ,1065629902,,false,0
MAJULAYNNE SUAREZ VIDALES ,1064714158,,false,0
YESICA ESTRADA MADRID,1068386867,,false,0
CAMILA ARAUJO CABALLERO,1066094266,,false,0
AUNER BETANCOURT DIAZ,93397078,,false,0
FREDY ALEXANDER RICO,93391288,,false,0
CESAR AUGUSTO MATEUS CASTRO ,93383601,,false,0
CARLOS ENRIQUE CORRAL SANABRIA,93398950,,false,0
FRANCISCO JAVIER MINORTA NOVA,1098640184,,false,0
DIANA LORENA ESPINOSA JIMENEZ,28544925,,false,0
ANYI ALEJANDRA MUSEN CABRERA,1144160392,,false,0
VICTOR HURTADO JIMENEZ ,79707054,,false,0
GERALDINE MENDEZ ENRIQUEZ,1062334100,,false,0
JUAN CAMILO RUANO BARONA ,1061437538,,false,0
JUAN DAVID LOPEZ GUAPACHA,1144074041,,false,0
JULIANA SIERRA ZAPATA ,1062320991,,false,0
DIANA PATRICIA OSORIO DAVILA,66718017,,false,0
KARINA ANDREA GALLEGO CAMPO,1116248400,,false,0
LINA MARIA GARCIA TORIJANO,31792864,,false,0
DARLEY ESPERANZA HOLGUIN,38876518,,false,0
LINA MARCELA VARGAS RAMIREZ,1112769185,,false,0
MARISOL VELASQUEZ BERMUDEZ,1116246941,,false,0
HEINER FAURICIO NAVARRO MURCIA,1075254361,,false,0
DIANA MARCELA CRESPO VARGAS,55159143,,false,0
NORMA CONSTANZA TRUJILLO ANDRADE,55152573,,false,0
LINSAY REINA ARIAS MONROY,10003,,false,0
SANDRA LILIANA MEDINA ANDRADE,55163371,,false,0
HECTOR MAURICIO MONTEALEGRE VILLARREAL,7694684,,false,0
JOHN EDWIN LOZADA,79804843,,false,0
ROGER LOPEZ,79895917,,false,0
OSCAR LLANOS,80774623,,false,0
LUIS GUILLERMO SUAREZ,80832887,,false,0
CONSTANTINO CARDOZO CORTES,11306153,,false,0
MARCO ANDRES GARZON,79878732,,false,0
ELIANA ALVARADO,52904238,,false,0
LEIDY CAROLINA DURÁN,65634637,,false,0
CINDY TATIANA VARGAS,1030570007,,false,0
YULY NIEVES,1030563939,,false,0
JENNIFER KATHERINE ORJUELA,1010181569,,false,0
ERIKA ANGEL NAVARRETE,52076423,,false,0
SANDRA ELIANA QUINTERO BRICENO,60388041,,false,0
MARIA DEL PILAR RUEDA GARCIA,1090432853,,false,0
DEISY YARIMA ARAQUE URIBE,1090394355,,false,0
DIANA MARCELA ARAQUE URIBE,1090453657,,false,0
MAYRA ALEJANDRA TORRES AGUDELO,1090434076,,false,0
ANDREA MARCELA VELOZA  CABALLERO,1090431638,,false,0
MYRIAN URIBE ,40399396,,false,0
JUAN DAVID     ESTEVES     GIRATA    ,1070958585,,false,0
SONIA GERANDINE ROJAS,1070781230,,false,0
NINEYI FEDY AGUIRRE ,1077970884,,false,0
ALBA LILIANA PUENTES,1075874218,,false,0
IVAN GUILLERMO CASERES,1024513344,,false,0
ADIELA LILIANA  SARMIENTO,1077083465,,false,0
HERIKA JOHANA SANTOS ,1098628362,,false,0
DIANA CAROLINA OVIEDO ORTEGA,1075674162,,false,0
CARLOS ALBERTO PATIÑO SANABRIA,1023922637,,false,0
CRISTIAN CAMILO BOLIVAR PAEZ,1032424334,,false,0
DAVID MANUEL NIÑO PIÑEROS,1030636688,,false,0
MAIGRET ALEXANDRA RAMIREZ IBAGON,1121828225,,false,0
JOHAN JOSE QUINTANA VÁSQUEZ,80904869,,false,0
VANESSA LILIANA SOTELO ARIAS,1022372911,,false,0
TALIA FERNANDA ECHAVES VELASQUEZ,1064841643,,false,0
SINDY MILENA RODRIGUEZ ARGUELLO,1016039850,,false,0
NATALIA STHEFANY VERA LA ROTTA,1018494746,,false,0
DIANA PAOLA CAICEDO,1018404245,,false,0
PATRICIA LINARES AROCA,52791775,,false,0
SANDRA ROCIO GONZALEZ CASTILLO,52103642,,false,0
JULIETHE MORERA CARDENAS,1020775800,,false,0
MYRIAM OBANDO,52896808,,false,0
JACQUELINE DEL ROSARIO  SUAREZ,51714077,,false,0
PAULA ALEJANDRA RODRIGUEZ CORTES,1016035094,,false,0
LUISA FERNANDA LINARES SUAREZ,52427332,,false,0
MARCELA DIAZ RODRIGUEZ,52523161,,false,0
ALEXIS JAVIER OÑATE ESTUPIÑAN,1065573701,,false,0
CHRISTIAN EDUARDO DIAZ GARCIA,1032364784,,false,0
CARLOS JENEIDER CONDE DURAN,13740266,,false,0
JOEL SANTIAGO VARGAS LINDARTE,1018475751,,false,0
JOSEPH DEMIR PORTAL VILLANUEVA,857824,,false,0
ANDRES CAMILO BOHORQUEZ CASTILLO,1032427060,,false,0
MAURICIO ANDRÉS NUÑEZ ORTEGÓN,93137334,,false,0
OSCAR IVAN POVEDA PEÑA,1032449608,,false,0
NESTOR EDUARDO SILVA VERGARA,79005233,,false,0
LEONARDO BELTRAN ,1030532413,,false,0
DILIA TORRES,1052385024,,false,0
ANDREA TORRES,1022335574,,false,0
YAMIT MARTINEZ,1024553986,,false,0
NATHALIA BERNAL ,1000696713,,false,0
OSCAR BLANCO,79950515,,false,0
JOHANA CALDERON,52803807,,false,0
CARLOS ALBERTO RICO RINCON,79861583,,false,0
MARTHA LILIANA TARAZONA CHAVEZ,1090175193,,false,0
RICARDO ANDRÉS BELTRÁN ALFONSO,1012390507,,false,0
ERICKSON RICARDO SOLER HUERTAS,1032391050,,false,0
JUAN CAMILO JAIMES CORREDOR,80843240,,false,0
FABIÁN ALEJANDRO LÓPEZ SUÁREZ,1024532416,,false,0
DAVID RICARDO PARDO GONZALEZ,1032492883,,false,0
JHON FREDY PACHECO AVELLA,1030624127,,false,0
OSCAR HUMBERTO MARTÍNEZ RODRÍGUEZ,86079594,,false,0
DANIEL ANTONIO AGUILAR LOPEZ,79954822,,false,0
ANGELA LILIANA GARCIA MARTINEZ,41952991,,false,0
GERALDY NIÑO MENDEZ,1094919421,,false,0
NATHALIA RUED ARANDA,1022423169,,false,0
ADRIANA TERESA TORRES ROJAS,1094937945,,false,0
HECTOR MARIO TORRES SANCHEZ,4376331,,false,0
DIANA CAROLINA ISAZA URREA,1094911475,,false,0
MAGALI JARAMILLO SOLANO,55178848,,false,0
XIOMARA CASTAÑEDA GUZMAN,1094955086,,false,0
PAULA ANDREA ARANGO HERNANDEZ,1144179985,,false,0
YEIMI YULIANA GONZALEZ DIAZ,1098695498,,false,0
JENNY SMITH HERNANDEZ MORENO,40330159,,false,0
AMINA CRISTINA DUARTE TIRADO,40513045,,false,0
VIVIANA MARIA RUEDA TOSCANO,37745700,,false,0
MARILY ANDREA CARVAJAL RANGEL,1090457458,,false,0
MARIA GABRIELA MONTEALEGRE SOTO,63544292,,false,0
DANELIS USTARIZ ,1065653845,,false,0
LAURA LOPEZ GOMEZ ,1118848769,,false,0
FRANCISCO WILLIAMSON,1140842912,,false,0
BIBIANA BURBANO ,22586221,,false,0
RICARDO EZEQUIEL DIAZ GRANADOS SEGOVIA,73187332,,false,0
MARTIN ALONSO GUTIERREZ OSPINO,1085096325,,false,0
MYRIAM ELENA SINNING SOTO,33214460,,false,0
LINA MERCEDES MARTINEZ RICO,1002375300,,false,0
LUZ STELLA LOPERA FLOREZ,39022655,,false,0
ORIETTA RANGEL GALIANO,30798411,,false,0
MARIA MONICA LOPEZ MORALES,1085230267,,false,0
JOSE LUIS AMASHTA HOYONES,1081790041,,false,0
MARIA JOSE RAMOS CENTENO ,1026289211,,false,0
EDWIN ALBERTO ABDALA PEREZ,1082837242,,false,0
CRISTIAN IVAN PULIDO MOLANO,1023939010,,false,0
ANGIE JULIETH RODRIGUEZ CHAVES,1032481542,,false,0
JENNY MARCELA ANGARITA PIRA,1013606559,,false,0
WILLIAM GIOVANNY ROJAS MORA,1013602422,,false,0
 GIOVANNY ARMANDO RODAS VILLEGAS,1018437505,,false,0
DEISY LORENA DIAZ LEMUS ,1019070325,,false,0
LUIS ALEJANDRO SIERRA ,1020754212,,false,0
SEBASTIAN ROZO URETA,1020762028,,false,0
JOHAN STEVEN GONZALEZ PLAZAS,1022379311,,false,0
DIEGO FERNANDO BETANCOURT,79918704,,false,0
JACKELINE MARGOTH TORRES FUENTES,53075541,,false,0
JORGE ARMANDO LOZANO SANCHEZ,1019072888,,false,0
SANDRA MILENA ACEVEDO,1018446900,,false,0
LICET CAROLINA PINZON,1030667153,,false,0
JORGE ENRIQUE GARCIA GUTIERREZ,1010210267,,false,0
HENRY RODRIGUEZ GOYENECHE,1093750851,,false,0
LEONARDO ADRIAN VALENCIA ,13275764,,false,0
KAROL NATHALIE ESCALANTE,1090385463,,false,0
GLORIA PATRICIA CHAUSTRE,60361901,,false,0
VERONICA SANJUAN ,1091669376,,false,0
JAIR LEONARDO OSORIO,13507784,,false,0
ANA MILENA GARCÍA COBO,38791639,,false,0
RICARDO ALEXANDER CALVO,80163242,,false,0
LUZ ANGELA GRAJALES,1127605779,,false,0
JOHN MARLON NUÑEZ,1012447300,,false,0
YESID FORERO,79756469,,false,0
LEONARDO FAJARDO,1014192914,,false,0
ELICERIO PAEZ VELEZ,1124015526,,false,0
LUIS CARLOS HERNANDEZ ,84078298,,false,0
CARLOS ANDRES ESCORCIA,84096182,,false,0
JUAN DAVID PINTO ,84091234,,false,0
DIEGO CHAPETON,1018422199,,false,0
GUSTAVO ADOLFO ATENCIA ACOSTA,1103105650,,false,0
JHONATAN MIGUEL CAMPO MENDOZA,1102839784,,false,0
YEISON ALFONSO HERNANDEZ MERLANO,1102825081,,false,0
HUMBERTO ARTURO MORALES SERNA,92543804,,false,0
GANDHY ALAIN DIAZ PEREZ,84102040,,false,0
JULIO CESAR ESTRADA LIMA,18859419,,false,0
JENNY ALEJANDRA ARCE LOZANO,1026291115,,false,0
MAIRA ALEJANDRA RAMIREZ LEGUIZAMON,1031137261,,false,0
CAMILO RODRIGUEZ LARA,1069729138,,false,0
DIANA YAMILE TAPIERO ,1010181807,,false,0
OMAR DANIEL ESPAÑA ,1123200708,,false,0
CARLOS AUGUSTO SANCHEZ,1047454480,,false,0
ERIKA CUCHIMAQUE ,52908676,,false,0
PAOLA GARCIA ,40333845,,false,0
SERGIO TORRES,1073165977,,false,0
ISABEL MONSALVE ,1030526446,,false,0
BRAYAN ALVAREZ GALEANO,1128423645,,false,0
GUILLERMO PATIÑO,80097604,,false,0
HERNANDO JOSE JIMENEZ DIAZ,1052041429,,false,0
KAREN YOJHANA GUZMAN AVILA,1018421726,,false,0
DIANA CAROLINA ALGARRA,1073231313,,false,0
DAVID FELIPE DURAN PORTILLA,1032408138,,false,0
YURI LUCERO RODRIGUEZ PATIÑO,1014197560,,false,0
CARLOS HERNANDO DIAZ ARANGUREN ,79692355,,false,0
CRISTIAN OSWALDO ESPITIA GOMEZ,1076656301,,false,0
JAVIER ENRIQUE RODRIGUEZ CIFUENTES,79166724,,false,0
LUISA FERNANDA SAAVEDRA LANCHEROS,1049616524,,false,0
YADDY FERNANDA MARTINEZ MARTINEZ,1052391895,,false,0
ARIATHNA ESTEFANY CABRERA CABRERA,1052389589,,false,0
HECTOR MAURICIO LOTE PACHON,79170504,,false,0
DANIEL FELIPE RICAURTE GÓMEZ ,1023898254,,false,0
CRISTIAN CAMILO DÍAZ RENDÓN ,1026556339,,false,0
MIGUEL ÁNGEL MOYA RAMÍREZ ,1020772654,,false,0
MONICA JOHANNA CADENA TELLEZ ,1136881511,,false,0
MARÍA DEL PILAR GELVEZ PEÑALOZA ,1020726337,,false,0
MARIA PAOLA ZAMBRANO PINTO ,1075655724,,false,0
VIVIAN ANDREA ALONSO GARZÓN,1075660411,,false,0
ANA CAROLINA RUBIANO MANRIQUE,1030538127,,false,0
PAULA ALEJANDRA SAAVEDREA OCHOA,1032447615,,false,0
ANGELICA JOHANNA SUSA MURILLO,1018425250,,false,0
LEIDY PAOLA GOMEZ SEGURA,1073237501,,false,0
AMY DANIELA PINEDA VARGAS,1077035293,,false,0
LUISA FERNANDA IDROBO MEDINA,1061713149,,false,0
LUIS PLATA,79449912,,false,0
LUZ YANEIDY CRUZ,52463491,,false,0
ALVARO MORENO,1026265557,,false,0
ZAIR CARDENAS,80932339,,false,0
YULIANA HERNÁNDEZ,53116216,,false,0
ELIANA SOLARTE,25284949,,false,0
CAROLINA TORRES GRANADA,1036613303,,false,0
ESTEFANY GIRALDO TORRES,1026147569,,false,0
RODRIGO DE JESUSU IBARRA SALDARRIAGA,70129675,,false,0
GILDARDO ANDRES ORTIZ OCAMPO,8127782,,false,0
PAMELA MARIA MAZO CARO,1017186746,,false,0
MARIA CAMILA BARREIRO ,1030585623,,false,0
PAULA JIMENA CELY,1015444520,,false,0
SANDRA PATRICIA GARCIA,1012393893,,false,0
ANGIE CATHERINE CUELLAR,1031140717,,false,0
CARLOS RAMIREZ,80198061,,false,0
LEIDY JOHANNA ZAMBRANO,1032429752,,false,0
ADRIANA MARCELA MORA RODRIGUEZ,52951896,,false,0
ANDRES FELIPE ZEA NITOLA,1010216241,,false,0
SANDRA PATRICIA GUTIERREZ INFANTE,52277872,,false,0
CARLOS LEONARDO TOVAR BOJACA,1013591995,,false,0
JESUS STIVEN RAMIREZ ZAMUDIO,1018466627,,false,0
FRANCY KATHERINE BARAJAS CHACON,1022398522,,false,0
DORNER LEON RESTREPO,1088240916,,false,0
CHRISTIAN GUTIERREZ SOTO,1144164886,,false,0
OSCAR ANDRES MESA MOLINA,1152450830,,false,0
MAURICIO ALBERTO RENDON ,1128454331,,false,0
CRISTIAN CAMILO CRUZ CRUZ,1037601418,,false,0
CARLOS HUMBERTO MEJIA JAIMES,19472831,,false,0
WASHINGTON JAVIER POLO,207658,,false,0
JULIAN ALBERTO ANGULO,19417217,,false,0
FABIO ARANDA,19473528,,false,0
JULIAN MAURICIO MARTINEZ,79756030,,false,0
CESAR AUGUSTO RODRIGUEZ SANDOVAL,79554406,,false,0
LIZETH PAOLA LOPEZ SANCHEZ,1035860772,,false,0
MELISSA ANDREA HOYOS,1037650914,,false,0
CRISTIAN MONROY LOPEZ,1017248605,,false,0
MAYRA ALEJANDRA JOJOA,1085307291,,false,0
MARIANA MONTOYA VASQUEZ,1036664193,,false,0
CARLOS MARIO HENAO,71240292,,false,0
JEISON DAVID FERREIRA CUAICHAR,1144130831,,false,0
CHRISTIAN CAMILO ARCILA CARMONA,1094888762,,false,0
LEONARDO ANDRÉS HERNÁNDEZ POVEDA,94526350,,false,0
ANDRES FELIPE OSPINA ARROYO,1070619930,,false,0
CLAUDIA MARCELA LOPEZ GONZALEZ,38613387,,false,0
LEIDY TATIANA SÁNCHEZ ROZO,1144102763,,false,0
YOLANDA PATRICIA CASTRO SALINAS,53931830,,false,0
LUZ MARINA DE LA PAVA,43651072,,false,0
DIEGO FERNANDO MARIN,71191419,,false,0
DANILO  ALBERTO ZAPATA ,11311824,,false,0
CESAR DANIEL LAVACUDE RIVERA,1012364803,,false,0
DIANA CAROLINA CELY ROJAS,1052380562,,false,0
ANGELA GABRIELA QUIGUA ALMENDRA,1061789025,,false,0
FRANCISCO ANTONIO RENGIFO ZAMORA,10547692,,false,0
LUIS ALEJANDRO RANGEL WALTEROS,1061715232,,false,0
GISELL STEPHANY BURBANO BAENA,1061748813,,false,0
FELIPE ORTEGA PLAZA ,1061719459,,false,0
ANYELI ANDREA ANCONA BERMUDEZ,1061752962,,false,0
AVELINO RAFAEL ALVARADO URUETA,1083554612,,false,0
FABIÁN CAMILO CAÑÓN CASTRO,1019104969,,false,0
ANDRÉS MAURICIO CARDENAS PAEZ,1022324971,,false,0
JOSE ARNULFO ESTEVEZ BLANCO,1023001862,,false,0
TATIANA SANCHEZ MONROY,52974605,,false,0
ANDRÉS FELIPE VEGA TORRES,1020814816,,false,0
CARLOS ANDRES WALTEROS SILVA ,1022343015,,false,0
MARTHA PATRICIA CRUZ ABRIL,1019092433,,false,0
 IVONNE JOHANA CASTANEDA LOPEZ,1019085953,,false,0
 SANTIAGO FELIPE ROMERO RODRIGUEZ,1014209219,,false,0
DIEGO ANDRES GUERRERO HERNANDEZ,1014278530,,false,0
 LUIS HERNANDO PEREZ CASTRO,1022370273,,false,0
 SONIA MILENA DAZA HERNANDEZ,1019049219,,false,0
KENJI GERALDINE VEGA ZULUAGA,1019065189,,false,0
ALEJANDRO RAMIREZ NONSOQUE,1014179567,,false,0
WINDY TATIANA CANTE GUTIERREZ,1023941845,,false,0
JOHN FERNANDO BELTRAN BELTRAN,80069430,,false,0
EDGAR MAURICIO ULLO CIFUENTES,79576893,,false,0
ANGELICA  MARIA CUEVAS RIVERA,1018448113,,false,0
CARLOS FELIPE BULLA SANCHEZ ,1022372526,,false,0
MANUEL ANTONIO TEJEDA SABOGAL,80751165,,false,0
LUIS FERNANDO CORDOBA  TORRES,79907562,,false,0
OLGA LUCIA LEON DAVILA,1013596868,,false,0
DALEXA PICÓN SOLANO,1018422905,,false,0
ALVARO BRITO PAEZ,80492557,,false,0
LEONARDO CONTRERAS ACERO,79529884,,false,0
LISSETTE PEÑA ORTIZ,1032363894,,false,0
LEIDY JHOBANNA LOZANO PATIÑO,1019028680,,false,0
FREDY CORTES CORTES,11232433,,false,0
CINDY KATHERIN MANTILLA SUAREZ   ,1095797334,,false,0
FRANCISCO ALFONSO NOVOA FARFAN,1020781090,,false,0
JORGE ALBERTO ALGARRA GONZALEZ,1077034594,,false,0
ALEXA FERNANDA FLOREZ URRUTIA,1031154501,,false,0
SANDRA MILENA DIAZ CARDENAS,1030565834,,false,0
EDILBERTO GOMEZ,79450481,,false,0
ADRIANA MARCELA RODRIGUEZ ROCHA,53910802,,false,0
ALEJANDRA VARGAS,40329886,,false,0
RUBEN ALEXANDER MEJIA CONTRERAS,1127383973,,false,0
YAJAIRA FERNANDA PEÑA REY,1122132498,,false,0
JESSICA IVONNE SALDARRIAGA POVEDA,1121886056,,false,0
SERGIO ESTEBAN ARANGO CASTANO,1121923097,,false,0
JUAN DANIEL MORALES HERNANDEZ,1121907343,,false,0
MAURICIO VIANA CANCINO,1047394509,,false,0
CAMILO ALEXANDER GARCIA CABRERA,1016068998,,false,0
ALVARO DANIEL ZABALA BERNETT,1063156904,,false,0
CESAR AUGUSTO GARCÍA BALLEN,80139500,,false,0
GERMAN ANDRÉS LÓPEZ PACHECO,1032466551,,false,0
LADY DAYANNA ALMANZAR TIRADO,1020752087,,false,0
BRAYAN JANPAER BUITRAGO LATORRE,1018454013,,false,0
PABLO SANTIAGO BUSTOS CASTRO,1018490961,,false,0
MATEO LAGOS,1015418417,,false,0
LAURA MILENA RAMOS BERMUDEZ,1018489805,,false,0
NATALIA ROSERO ACOSTA,1019127674,,false,0
ANDREA RENGIFO RODRIGUEZ,52964690,,false,0
EDUARDO ANDRES BEDOYA CEBALLOS,1087994738,,false,0
HERNAN RICARDO RIVEROS,93389347,,false,0
LUIS FRANCISCO RINCON OLIVA,79107805,,false,0
MELINA ANDREA CRUZ,52262678,,false,0
CESAR AUGUSTO SOTO CORTES,80085540,,false,0
DIANA PATRICIA BARRANTES PEREZ,52007412,,false,0
EDGAR IBAÑEZ BERMUDEZ,4137137,,false,0
SANDRA LILIANA SANCHEZ PULIDO,52550159,,false,0
GERMAN DARIO BARACALDO AVENDAÑO,79455872,,false,0
GUSTAVO ADOLFO FERRUCHO SARRIA,79740885,,false,0
EDILBERTO DIAZ SALAZAR,10005,,false,0
XIMENA GIRALDO CASTRO,24335366,,false,0
PAULA TATIANA HOYOS GIRALDO ,30402881,,false,0
YENNY CAROLINA SOTO ZAMORA ,24333976,,false,0
VIVIANA ARCILA MATEUS ,34001671,,false,0
ANDRÉS FELIPE CUERVO GIRALDO ,75078148,,false,0
MANUEL MARÍA SOCORRAS PALMA ,72131806,,false,0
JENNY PAOLA LÓPEZ MONTES ,1053812624,,false,0
JONATAN ANDRÉS AMAYA ,16070825,,false,0
ALEJANDRO AGUIRRE OSORIO ,75075536,,false,0
ÁLVARO SALAZAR CADENA ,75075626,,false,0
KAROL MARIANA PUENTES HENAO,24348853,,false,0
JUAN ALBERTO RUSSI RAMIREZ,1053797159,,false,0
LAURA MELISSA RODRIGUEZ BUITRAGO,1020776378,,false,0
ZULLY ESMERALDA PEÑA GOMEZ,1019041268,,false,0
LEONARDO CUBILLOS MONTENEGRO,80215798,,false,0
GUSTAVO TIJARO CRUZ,80243016,,false,0
KEVIN ORLANDO JOYA MORENO,1013672299,,false,0
ANGIE KATHERINE PACHECO MONTERO,1012427941,,false,0
EVER ALBERT QUIMBAYO CAMPOS,79594373,,false,0
JAIME ANDRES CUELLAR FACUNDO,12197779,,false,0
ANGELICA PADILLA OROZCO,1121204312,,false,0
DIANA CATALINA CHACÓN SANTANA,1020724453,,false,0
AURA ELENA PEÑA LATORRE,52292103,,false,0
JULLI ANDREA CUBILLOS ,52968855,,false,0
ZULENY CAROLINA GOMEZ,1076663468,,false,0
ELIZABETH PARDO CARVAJAL,1022351526,,false,0
YIRLEY NATALIA CRUZ,1026582120,,false,0
LIZETH DANIELA SANCHEZ NARVAEZ,1026292555,,false,0
JORGE ENRIQUE MORA NIÑO,1020750093,,false,0
YEFERSON IVAN ESPINOSA CARDOZO ,1031141187,,false,0
NESTOR MORANTES SEGURA,1016057617,,false,0
DORIAN CAMILO MONTES FERNANDEZ,80800150,,false,0
RICARDO ENRIQUE PARRA RODRIGUEZ,79414265,,false,0
CONNIE BRICEÑO FARFAN,1015424279,,false,0
WILLIAM RENE RODRIGUEZ BENAVIDES,80763314,,false,0
ANGELICA TATIANA SARTA ALVAREZ,1015406246,,false,0
LIZETH TATIANA GONZÁLEZ HERRERA ,10015,,false,0
LUIS DAVID LEON MORENO,80017998,,false,0
CAMILA ALEJANDRA DIAZ RODRIGUEZ,1022417110,,false,0
PAULA ANDREA CASTAÑEDA SALAMANCA,1024566708,,false,0
ANGIE CATHERIN CARDOZO MORALES,1018433209,,false,0
KATHERINE JOHANA HENAO VIGOYA,1032457610,,false,0
DANIA MELISSA AYALA PANCHE,1015445780,,false,0
BRENDA STEFANNY CAMELO DIAZ,1022979982,,false,0
MONICA ALEJANDRA DIAZ,1033740379,,false,0
JUAN CAMILO GOMEZ,1032466120,,false,0
CAMILO ANDRES SIERRA,1018497369,,false,0
SINDY PAOLA MARIN GALVIS,1023013634,,false,0
VALENTINA RUIZ HERNANDEZ,1032488128,,false,0
SEBASTIAN SOTO SUAREZ,1033750010,,false,0
SANTIAGO ALBERTO BLANCO FLOREZ ,1014295696,,false,0
MAURICIO CORTES HERNANDEZ ,79685607,,false,0
LEYDY YADIRA YARA CASTRO ,52908432,,false,0
ALEXANDRA RAYO ,1030594161,,false,0
JORGE HERNAN BELTRAN DIAZ,1020751162,,false,0
NELSON DUBAN MURCIA CHACON,80184431,,false,0
JUAN CAMILO GUERRERO RIOS,1022370800,,false,0
SANDRA MILENA ESTRELLA JIMENEZ,1066733082,,false,0
WILFRAN ANTONIO PASTRANA ANAYA ,10784153,,false,0
BERNANDO JOSE PADILLA LOPEZ ,78023368,,false,0
ALIRIO JOSE MIRANDA PADILLA ,78021548,,false,0
JESSICA LORENA ESPITIA LONDONO,1015415482,,false,0
JOHN ALEXANDER QUIMBAY BARRANTES,1033677468,,false,0
ANDREA JULIANA MARTINEZ CAMACHO,63529890,,false,0
ALEJANDRA PATRICIA SUAREZ SUAREZ ,1015442271,,false,0
JHONATHAN ALEXANDER MAZUERA LOPEZ,1022970578,,false,0
OSCAR FABIAN BEJARANO VALDES,80215967,,false,0
MAIRA FERNANDA PARRA AREVALO,1020718676,,false,0
VICTOR HUGO GIRALDO GIRALDO,16940339,,false,0
NIDIA PATRICIA BELTRAN ,66811989,,false,0
CARLOS GILBERTO GIRALDO,10005,,false,0
SAYEGH PATRICIA HERNANDEZ TAPASCO,31712054,,false,0
MARIA ELENA D CRUZ ,31529533,,false,0
KATHERINNE YISED GARCIA RODRIGUEZ,1019072469,,false,0
ALEXANDRA ROA BERNAL,1030582575,,false,0
NELSON DEVIA CARVJAL,93125534,,false,0
ALBERTO JIMENEZ ESPINOSA,80407412,,false,0
ALIXANDER GANDARA ORTIZ,1144042777,,false,0
MARIO ALEXANDER ACUÑA VANEGAS,80541911,,false,0
HANS KARL LOPEZ,79566401,,false,0
ANIBAL NIÑO LANCHEROS,80096207,,false,0
FAUSTINO MORALES ,79624340,,false,0
ANGEL LEONARDO CAMACHO,80017873,,false,0
ALEXANDER DUITAMA,80852749,,false,0
JULIAN GUILLERMO ROA DUQUE,80009057,,false,0
DUVAN RODOLFO OSPINA,1036608620,,false,0
YUSEFFER AREVALO,72272523,,false,0
ANGELO FABIAN BAUTISTA GUTIERREZ,1030620314,,false,0
JUAN CAMILO RUIZ FLOREZ,79917638,,false,0
DIANA CAROLINA RODRIGUEZ CONTRERAS,1073243186,,false,0
LINA MARIA ZAMBRANO,29126853,,false,0
ANGELA MARIA LLANOS BENITEZ,1144206169,,false,0
ANGELA MARIA RODRIGUEZ ECHEVERRY,1144170452,,false,0
GINA MARCELA BASTIDAS GUZMAN,67026993,,false,0
VICTORIA EUGENIA MEDINA REYES,67026234,,false,0
DIANA LORENA CASTRO LOZANO,1113648612,,false,0
YESID ALFONSO DELGADO PEREZ,11385258,,false,0
CARLOS EDUARDO MALDONADO LARA,79721371,,false,0
LEIDY CAROLINA GOMEZ ACEVEDO,1016039551,,false,0
GABRIEL EDUARDO ALDANA PEÑA,79568914,,false,0
ARTURO LOPEZ OSPINA,80422239,,false,0
CARLOS EDUARDO ROSADA JIMENEZ,80185095,,false,0
HECTOR MARIO VELASQUEZ SALAMANCA,79986438,,false,0
JEISSON LAMPREA CHACON,80232940,,false,0
HECTOR ALEJANDRO MORENO LEGUIZAMON,79484276,,false,0
YULIETH SANTOS GARCIA ,1111197518,,false,0
YEIMY KATHERIN YEPEZ MENESES,1016060198,,false,0
LEYDI KATHERINE PINZON PERALTA,1110481094,,false,0
DORIS MACHADO MORENO ,65728224,,false,0
ADRIANA MARÍA GÓMEZ GIRALDO,24437409,,false,0
ANDREA MARÍN GÓMEZ CÓDIGO,26431533,,false,0
YEINA KATERINNE RAMOS RISCANEVO,1033798091,,false,0
ERIKA DAYANA MUESES ACOSTA ,1000685681,,false,0
LEANY BURITICA PEREZ,1007302454,,false,0
JULIETH ALEJANDRA RODRIGUEZ MENDEZ,1072647956,,false,0
JUAN SEBASTIAN PARRA CARDOZO,1032482205,,false,0
JOSE LUIS RODRIGUEZ DIAZ ,1014194296,,false,0
JOSE ANDRES PARRA CUELLAR,1019074448,,false,0
PAULA CAMILA GARCIA QUINTERO ,1013607430,,false,0
RAFAEL STIVEN LOZANO BARACALDO ,1016067142,,false,0
YANITH MILENA CAMACHO MATEUS,63436194,,false,0
CAROLYNE  MELYSA GARZON JIMENEZ,1015453624,,false,0
KAREN YISED TRIANA PAEZ,1122138495,,false,0
SERGIO ANDRES MARTINEZ OSPINA,1013658015,,false,0
ELIZABETH MONTIEL GARCIA,1012384683,,false,0
JHONATAN STEVENAGUILARLEGUIZAMON,1013622356,,false,0
MARTHA  INES PEREZ PINEROS,51718046,,false,0
IRMA JANETH GARZON CANO,1019071785,,false,0
ANGIE MARCELA LIEVANO PENAGOS,1016038830,,false,0
JORGE ALFONSO BOCHAGA PAEZ,1144130953,,false,0
ALEJANDRO VILLALOBOS JARAMILLO,1144040081,,false,0
PAULA ANDREA MOYANO SALAMANCA,1144082890,,false,0
DANIELA GUEVARA SOLANO,1144091737,,false,0
DANIEL ALEXIS OTERO OVIEDO,16927458,,false,0
CAMILO ERNESTO LOPEZ URIBE,1130667098,,false,0
IVON MARCELA MONCADA RUEDA,44003876,,false,0
LESLY YOREIMA SANCHEZ MONTERROSA,37579638,,false,0
DIEDRY JULIETTE PUERTA BARRERO,1096212794,,false,0
MARIA LILIANA MIER JEREZ,1050919597,,false,0
MARIA LUISA SAMPAYO GAITAN,1096210791,,false,0
ANGELICA MARIA ANGULO,1090419900,,false,0
ANGEL OCTAVIO PICO,91080827,,false,0
JULIANA AMAYA CONTRERAS,1098670592,,false,0
CLAUDIA RUEDA,37946280,,false,0
MILENA DIAZ ENCISO,37929262,,false,0
DAROLY DAYANA GOMEZ,37394020,,false,0
AMELIA VILLA ,1096211573,,false,0
JOSÉ DANIEL MUÑOZ ALFONSO,11349494,,false,0
EDILBERTO MORALES SARMIENTO,79514748,,false,0
RAFAEL AUGUSTO MORALES MONTAÑA,79602817,,false,0
JEISON JAIR  MARTIN PEÑA ,1014216187,,false,0
CAMILO ANDRES PÉREZ HERNANDEZ,1026275220,,false,0
JUAN CARLOS GALVIS VELEZ,79956151,,false,0
MARIA FERNANDA PICO SILVA,1070962561,,false,0
DIANA LORENA CASTILLO GOMEZ,1073167161,,false,0
EDWIN ALEJANDRO RANGEL MORERA,80577335,,false,0
JUAN AGUSTIN LEGUIZAMON DIAZ ,79056042,,false,0
MARIO ALFONSO GOMEZ HORTUA,79954631,,false,0
JHON ENRIQUE SALAS RIOS,17593765,,false,0
CATALINA NOVA ARGUELLO,37844306,,false,0
ANGELA YAMILE MANRIQUE,35536360,,false,0
DUMAR FERLEY MOLINA RAMIREZ,79003323,,false,0
YURLEY VIVIANA ALARCON TORRES,1015406741,,false,0
CLAUDIA JANNETH PAEZ MALAGON,35420352,,false,0
JOSE ARIEL HERRERA RUIZ,79490773,,false,0
JUAN CARLOS MONROY GONZALEZ,79134487,,false,0
PABLO ALEXANDER ORTIZ,6566310,,false,0
ANGELICA MARIA LOPEZ,52243209,,false,0
KAROL ROBERTO ROBERTO,1014237265,,false,0
OSCAR JAVIER MARTINEZ SANCHEZ,1030561443,,false,0
MICHEL ANDREY DIAZ DURAN,1024550284,,false,0
SONIA MARIA RINCON NOVOA,1016067305,,false,0
ANDRI MAYERLI CRUZ GALLEGO,1013644884,,false,0
PAULA ANDREA FUENTES BALLESTEROS,10007,,false,0
AMALIA CATALINA ROJAS FAJARDO,10008,,false,0
LADY KATHERINE BALAGUERA AMADO,1030604648,,false,0
SANTIAGO VARGAS CUERVO,1032473144,,false,0
LUISA FERNANDA ROA BALCEROS,1013645347,,false,0
CARMEN ADRIANA HIDALGO,69023193,,false,0
KAROL NATHALIA VALLEJOS,1123304926,,false,0
KAROL VIVIANA APONTE ARENAS,37292539,,false,0
 ADRIANA TANGARIFE,1123304265,,false,0
KATHERINE BEDOYA VASQUEZ,1036945823,,false,0
LEANDRA MILENA BURITICA IZQUIERDO,65814500,,false,0
LEIDY SOLANDA AYALA NUÑEZ,65645262,,false,0
ANA MILENA CORZO,1070598193,,false,0
JOSUE MANUEL PRADA SAENZ,93125204,,false,0
DIANA YANETH DIAZ OTERO,63534602,,false,0
LEONARDO BUSTAMANTE,79562035,,false,0
JULIO ALEXANDER ALVARADO,1052379730,,false,0
GILBERTO SANCHEZ RODRIGUEZ,10010,,false,0
MARCO FABIAN VARGAS GARCIA,80217050,,false,0
FERNANDO CAMILO VERGARA ROA ,80904909,,false,0
LILIANA DEL PILAR VELANDIA MARTINEZ,1123531721,,false,0
MARCELA AGUIRRE SOTELO,1016043354,,false,0
XIMENA VARGAS MURCIA ,52882238,,false,0
MAICON STIVEN REYES GUTIERREZ,1033783804,,false,0
YUDY PATRICIA LOPEZ CORDOBA ,1019010231,,false,0
CLAUDIA IDALY CASTAÑEDA TORRES,46668011,,false,0
BLAHIR STTEFANIA CAMACHO BELTRAN,1075680000,,false,0
CAMPO ELIAS CHAPARRO BARRERA,7228144,,false,0
LAURA CAROLINA MORENO CORTES,1053337099,,false,0
JOHNATAN ALEXANDER MURCIA FLORIAN,1053325137,,false,0
ANA MARIA ZULUAGA HOYOS,1001309344,,false,0
KAREN VIVIANA MOGOLLON CARDONA,1121932898,,false,0
DEISYU MARIBEL CHAPARRO RINCON,1052387435,,false,0
MARITZA TAPIAS RAMOS,1121881877,,false,0
MONICA  JOHANA  OCAMPO ,40343246,,false,0
VICKY ALEXANDRA MORA POLOCHE,1018424760,,false,0
JOE ESTUPINAN MONTANO,79970234,,false,0
VICTOR HUGO DIAZ CERON,1106768237,,false,0
DIEGO SANTOS DUARTE CUELLAR,80799399,,false,0
CAMILO ANDRES AGUIRRE OLMOS,9774257,,false,0
CHARLIE ALBERTO ANGULO ANGULO,1031138147,,false,0
ANDRES FELIPE CALDERON NOVOA,1024545637,,false,0
LIZETH LORENA RODRIGUEZ,1022377364,,false,0
INGRID PAOLA CORTES HERNANDEZ,1026278944,,false,0
JONATHAN SANCHEZ AGUILAR,80734894,,false,0
JOHN JAIRO CARDENAS SANABRIA,1057573941,,false,0
CARLOS ANDRES RIVERA HERNANDEZ,80158527,,false,0
ZULY ZARATE CASTELLANOS,27984070,,false,0
JOHANA DEL CARMEN BALLESTAS HERNANDEZ,1099210847,,false,0
JOSE LUIS JIMENEZ ESPRIELLA,72283873,,false,0
JIMMY ALEJANDRO BONILLA,1019119408,,false,0
ANA MARIA RODRIGUEZ MONCADA,10011,,false,0
MARTHA INES ROJAS AGUDELO,42789929,,false,0
NICOLAS GIOVANNY GONZALEZ COCUNUBO,10012,,false,0
ANDRES FELIPE MARTINEZ LOPEZ,1018406372,,false,0
MARIO VILLAMIZAR BUITRAGO,16776824,,false,0
DORYS CARDENAS OLAYA,29813068,,false,0
JENNY ALEXANDRA SIERRA CASTRO,1019034751,,false,0
JUAN ESTEBAN BUITRAGO ,1144085221,,false,0
RICARDO AMAYA CUERVO,16762860,,false,0
ORLANDO GUEVARA GONZALEZ,79571675,,false,0
OSWALDO RAMIREZ VILLEGAS,7713986,,false,0
JAIRO QUINTERO GUTIERREZ,12119933,,false,0
LUIA ALBERTO TRUJILLO SALAZAR,12110552,,false,0
JESUS MANUEL TARAZONA CARDENAS,17594659,,false,0
NOE RICARDO LOPEZ MAHECHA,79432498,,false,0
JOSE MANUEL  RODRIGUEZ ,1143343799,,false,0
ELTHON ENRIQUE AHUMADA,1047396149,,false,0
DIVANIS LICETH BERRIO,1050962182,,false,0
OSCAR JULIAN LOBELO,1050957142,,false,0
KAREN LORENA LEE,1052067535,,false,0
DANIEL  EDUARDO  LORA,1143391566,,false,0
EDWIN MAURICIO FRANCO ,80036452,,false,0
DANIELA CECILIA OSPINA ,1123632430,,false,0
KAREN JUDITH  TAVERA ,1143334474,,false,0
ANGELICA CECILIA RODRIGUEZ ,45514560,,false,0
ANA MARIA GUERRERO,1014240652,,false,0
ANA MIRLADY BASTIDAS,67024725,,false,0
YULI ANDREA SANCHEZ,1052338415,,false,0
PEDRO ORTIZ LUNA,1090383262,,false,0
CARLOS EDUARDO FORERO,1030557702,,false,0
GELBER GONZALO AYALA,79948181,,false,0
HEBER ANTONIO FLOREZ,85160869,,false,0
LINDA YULEY PARADA RUIZ,63558167,,false,0
SANDRA MILENA DUQUE MORALES,42152484,,false,0
JENNY ANDREA CASTELBLANCO PEDRAZA,1015993553,,false,0
 LINA PAOLA HERNANDEZ PENAGOS,1020743515,,false,0
JULIANA MARCELA VILLAR MAYORGA,1014255685,,false,0
ANGIE OSPINA,1022409336,,false,0
LUISA JOHANNA TORRES MENDILVESO,52803727,,false,0
GEOVANNY ACERO,80888540,,false,0
JINNETH GOMEZ NAVARRO,1013668491,,false,0
ANA ELIZABETH CASTIBLANCO ,1022970307,,false,0
PAOLA ANDREA SOTO,1032398548,,false,0
ANGIE VIVIANA MUÑOZ,1013632877,,false,0
EMERSON JAVIER GONZALEZ,1032370296,,false,0
ANDRES FELIPE CARDONA,1018461793,,false,0
FAVIO ALEXANDER BUITRAGO GONZALEZ,79508423,,false,0
MIGUEL ANGEL GONZALEZ ROJAS,11315890,,false,0
ALEJANDRO ZAMBRANO ESPEJO,79530866,,false,0
LISBETH YURANI LAGOS PIEDRAHITA,1124856159,,false,0
MARIA CAMILA PALACIOS CARDENAS,1077445881,,false,0
YURY ANDREA  MEZA ESTRELLA,1006946267,,false,0
LIZANDRO ALDEMAR ZAMBRANO CHAVEZ,1124851312,,false,0
DAVID LEONARDO ROBAYO HERRERA,80192072,,false,0
JULIAN ALFREDO LOPEZ,80186507,,false,0
DIEGO MAURICIO SINISTERRA,80759463,,false,0
JUAN FELIPE FORERO,80101805,,false,0
EDWIN GUILLERMO CIPAGAUTA,80055285,,false,0
FABIAN CAMILO GARCIA,1014198037,,false,0
PAOLA ANDREA BARAJAS VILLAMIL,1032459763,,false,0
LEIDY ROCIO CARO PRIETO,1030633049,,false,0
CLAUDIA PATRICIA RAMIREZ LOPEZ,1016039978,,false,0
MARGARITA MARIA MANGONES MATOS,1098606456,,false,0
CECY ALEXANDRA PENAGOS ESPINOSA,1033701458,,false,0
CAROLINA VARGAS VARGAS,52802318,,false,0
MARÍA CONSTANZA CASTRO VARELA,39560551,,false,0
ALEXANDRA VILLAMIL PARRA,52519121,,false,0
HERMANN FELIPE SANCHEZ ESPEJO,1022322803,,false,0
ANGELA MOLINA SARDOTH,26994685,,false,0
ELCY MARIA JIMENEZ PINTO,1121045624,,false,0
MILEN MARIA MURILLO MIRANDA,56059469,,false,0
LADY JOHANA NIÑO NIAMPIRA,1026560266,,false,0
TATIANA ALVAREZ ,55232594,,false,0
CARMEN BARRIOS,1143437468,,false,0
LAURA ROMERO ,1140893408,,false,0
NATALY OROZCO ,1140836355,,false,0
MARIA ANGELICA CALDERON MAYORGA,52603588,,false,0
MIREYA CUBILLOS RODRÍGUEZ,52814799,,false,0
ANGELY CAMACHO ZAMORA,52308065,,false,0
LILIAM KATHERINE LEON BRINEZ,1129578849,,false,0
CARLOS ANDRÉS DÍAZ MEDINA,79875397,,false,0
ALEXANDRA CUELLO ALMENAREZ,1045668232,,false,0
MIGUEL MAURICIO MENDOZA ORTEGA,80135443,,false,0
CARLOS ALBERTO ROJAS ARBELAEZ,93412891,,false,0
SILVIO GOMEZ CABRERA,17641192,,false,0
OSCAR HERNANDO ZAMORA SUAREZ,77017609,,false,0
CAMILO ANDRES TELLEZ PRIETO,79966846,,false,0
ANA LUCIA MOTTA GUTIERREZ,1073525027,,false,0
LEYDY JOHANNA FERNANDEZ VALENCIA,31710592,,false,0
KATHERIN YULIET RESTREPO URIBE,1037600552,,false,0
AZUCENA DE FATIMA CALVACHE SAENZ,31952546,,false,0
KATHERINE ECHEVERRI MARTINEZ,1107096683,,false,0
PAUL ALEXANDER D'ORAZIO TORRES,1020772673,,false,0
ANDREA VIVIAN RODRIGUEZ LOPEZ,52426750,,false,0
MARIA ALEJANDRA CASTAÑO RUBIO ,1019079650,,false,0
JULIETH ARIAS SALAZAR ,52507653,,false,0
LUZ DARY MENDIVELSO GOMEZ ,42545505,,false,0
GLORIA ENAIDA RAMIREZ RODRIGUEZ ,39524824,,false,0
BRIGITTE LIZETH AVILA CUELLAR,1023921421,,false,0
ALEXANDER LOPEZ FONSECA ,80157195,,false,0
ANGELA MONROY ,52019862,,false,0
MARÍA TERESA RODRÍGUEZ,66988024,,false,0
JUAN RICARDO MURCIA,1030528130,,false,0
EVELIN MATEUS ,52537858,,false,0
CARLOS CABUYA,80013701,,false,0
LAURA MARCELA MARMOLEJO,1032431921,,false,0
SANDRA MARCELA MORENO,52079705,,false,0
SANDRA LILIANA OSORIO ,52350603,,false,0
SANDRA MILENA QUIROGA,53139946,,false,0
PAMELA RAMIREZ PEREZ,1130681834,,false,0
CESAR AUGUSTO LOPEZ CASANOVA,80421514,,false,0
DAYANA ANDREA RAMIREZ AVENDAÑO,27894271,,false,0
JORGE LUIS OSORIO PEÑARANDA,1090382843,,false,0
ADRIANA MARITZA BALLESTEROS PEÑARANDA,1090434950,,false,0
ANGELICA VASQUEZ MORA,1098613848,,false,0
CARLOS ANDRES VERA NOGUERA,88253693,,false,0
YURANI PAOLA HURTADO NUÑEZ,37398464,,false,0
LEIDY YANETH CASTILLO SANCHEZ,1013621146,,false,0
AIDA YAMILE BURGOS BURGOS,33367892,,false,0
BLANCA LILIA GONZALEZ RODRIGUEZ,24217865,,false,0
DIEGO ARMANDO NUMPAQUE ,91111532,,false,0
JAIRO ALBERTO MANRIQUE MOYANO,79861285,,false,0
ISMAEL ANDRES MARRUGO FIGUEROA,1032425353,,false,0
ALVARO ANDRES MENDEZ PASCUAS,1032480233,,false,0
WILSON ENRIQUE HERNANDEZ CASTRO,79423371,,false,0
JAIME FERNANDDO PADILLA TRIANA,79839598,,false,0
JUAN PABLO OROZCO BARRERA,86085960,,false,0
ANA MILEIDY SANTAMARIA,1121832003,,false,0
JULIAN ANDRES ARBOLEDA OCAMPO,10005879,,false,0
BORIS ARMANDO SIERRA,91255494,,false,0
ANDRES GUILLERMO BARBOSA BOTERO,94371066,,false,0
ALBERTO FIGUEREDO SERPA,80423870,,false,0
RUTH ESPERANZA QUIROGA SANCHEZ,52151493,,false,0
YOLY PATRICIA VARON RODRIGUEZ,52007959,,false,0
GERMÁN ENRIQUE RODRÍGUEZ PERDOMO,80012001,,false,0
ALEJANDRO RAMÍREZ LALINDE,71316765,,false,0
VICTOR ALEJANDRO FANDIÑO QUINTERO ,79777574,,false,0
ENRIQUE GARZON VERA,79461593,,false,0
RAUL EDUARDO ALDANA VANEGAS,79621252,,false,0
FERNANDO DURAN LASCARRO,79464673,,false,0
CARLOS BARRETO,79872528,,false,0
ALEJANDRO PEREA,80198930,,false,0
JOAQUIN IGNACIO LONDONO CASTRO,98380597,,false,0
CARLOS ALBERTO TORRES BRAND,16754469,,false,0
CARLOS ENRIQUE MARTINEZ DELGADILLO,79698185,,false,0
DIEGO JULIAN ARANDIA,80058214,,false,0
GIANCARLO IBÁÑEZ PIEDRAHITA,79841604,,false,0
JHON HERMES RODRÍGUEZ VANEGAS,80027610,,false,0
THELMA DACIER GERALDINO QUINTERO,1140824129,,false,0
DAVIANIS CHARRIS CORONADO,1143267322,,false,0
ANDRÉS FERNANDO GARCÍA,79942740,,false,0
JOSE MARIA LEAL GARCIA,449117,,false,0
HÉCTOR BORREGUERO MIGUEL,51425517,,false,0
MANUEL TRUJILLO,80854106,,false,0
HUGO ALBERTO ABREO GARCÍA ,79798273,,false,0
ALVARO NICOLÁS CARRERA ,7705862,,false,0
YULES FABIAN CRUZ GARCIA,79907543,,false,0
MARCOS HERNANDO FRANCO CRUZ,79966361,,false,0
LUIS FELIPE HERNANDEZ RONDON,79793710,,false,0
ALBERTO HINCAPIE MILLAN,93285833,,false,0
ADRIANA DEL ROSARIO CABRERA E,37003762,,false,0
ALCIRA PATRICIA ALVAREZ RODRIGUEZ,66764869,,false,0
DELIA LORENA RAMIREZ LEON ,42147746,,false,0
OLGA LUCIA BERNAL URIBE ,38863782,,false,0
SANDRA MILENA RODRIGUEZ NIETO,52507458,,false,0
DIANA YANETH BEDOYA SANCHEZ,52122617,,false,0
OLGA BEATRIZ CASTAÑEDA CASTAÑO,30330280,,false,0
LINA MARIA VELEZ RESTREPO,43723088,,false,0
ELIZABETH CRISTINA ARANGO OBANDO,43264647,,false,0
ANA MARÍA VALENCIA URIBE,32142359,,false,0
ALEXIS MAURICIO GONZALEZ LOZANO,94474286,,false,0
FRANKY CONRADO ALZATE ECHEVERRY,16501570,,false,0
ÁNGELA MARÍA DURÁN NIÑO,52352077,,false,0
DIANA JULIETH CALDERON ,65733885,,false,0
DIANA CAROLINA BELTRÁN,38363930,,false,0
NELLY PATRICIA CRUZ CAICEDO,65763692,,false,0
IVAN AGUIRRE,91472819,,false,0
WALTER PABON,91487422,,false,0
EDINSON CAICEDO SILVA,1090469134,,false,0
CINDY KATHERINE FONSECA SALAS,1020740621,,false,0
KATERY NUÑEZ MERCADO,1082894927,,false,0
DIANA KATHERINE VASQUEZ ,1082915142,,false,0
ANA MARIA LOPEZ MONTOYA,43858827,,false,0
LUZ ADRIANA DUQUE YEPES,29158773,,false,0
MAURICIO SUAREZ NOGUERA,79427434,,false,0
HERNANDO BLANCO GARCIA,80033623,,false,0
MANUEL JOSE MORENO NORIEGA ,94413565,,false,0
GLORIA LILIANA LOAIZA AGUIRRE ,66906675,,false,0
SHIRLEY TATIANA CORZO DELGADO,63559170,,false,0
DIANA PATRICIA RUEDA ROJAS,63529306,,false,0
LUZ HELENA BARRERA CHAPARRO,63479630,,false,0
NELLY QUINTERO,27727889,,false,0
OLGA ZORAIDA QUIÑONEZ CAÑON,51788962,,false,0
ANGELICA MARIA PAREJA GAMBOA,1110490330,,false,0
DEISY DILBANIA MUNOZ SUAREZ,43797450,,false,0
JEYRA TATIANA BARROS URQUIJO,1045687704,,false,0
MERLYN JOHANA HERNANDEZ RAMOS,1048209962,,false,0
MAURO LIBARDO ESCRUCERIA PATIÑO,16941421,,false,0
REYNALDO JAVIER FAJARDO BOCANEGRA,16506185,,false,0
LAURA VICTORIA LLOREDA MARULANDA,1013614150,,false,0
PAULA ANDREA RUIZ BABATIVA,1026292481,,false,0
ROBERT CLAVIJO,80239600,,false,0
HENRY SOAZA,79565742,,false,0
VANNESA GOMEZ RESTREPO ,1020459442,,false,0
PAULA CATALINA CARDONA ALVAREZ ,32205997,,false,0
ANGELA CRISTINA MORA CAICEDO,52690278,,false,0
MARGARITA MARIA FAYAD HERRERA,28566226,,false,0
JUAN PABLO HERRERA,80505386,,false,0
DIEGO CAMILO PUENTES MONTENEGRO,80191858,,false,0
JANETH RUEDA PIMENTEL,52086520,,false,0
DIANA LIZRTH ZAPATA VELA,1111809078,,false,0
SIRLEY ANGULO GONZALEZ,38466262,,false,0
YULADIS MARIA DIAZ VALENCIA,1001532426,,false,0
LINA MARCELA GOMEZ SANCHEZ ,1066571727,,false,0
DANIELA DE LA OSSA VERGARA,1069495271,,false,0
EVER JOSÉ VEGA BERGH,3946574,,false,0
DANIEL ALBERTO MORALES YUSTI,72217934,,false,0
RICARDO BOTERO CARRILLO,79424474,,false,0
ELKIN GAMBOA,79938378,,false,0
FREDYS MANUEL FONTALVO SILVERA,8495181,,false,0
DIEGO ALBERTO MEDINA TAMAYO,84075973,,false,0
URIEL FERNANDO BARRERO MENESES,79618257,,false,0
ALVARO ANTONIO MALDONADO FREAY,72245775,,false,0
MARCOS FERNANDEZ GONZALEZ,1144050733,,false,0
ANDRES ALBERTO HERNANDEZ DELGADO,1113640538,,false,0
CARLOS ALBEIRO GRISALES,14839691,,false,0
DIEGO FERNANDO MARLES,1144160424,,false,0
CELIA LISSETTE PARRA RODRIGUEZ ,38360374,,false,0
HENRY POVEDA RIVERA ,10177244,,false,0
JENNIFER JOHANA DE LA ROSA MONCAYO,1085250628,,false,0
LINDSAY VIVIANA RAMIREZ VARGAS,1113637180,,false,0
CARLOS EDUARDO VARGAS VARGAS,13723311,,false,0
GERARDO ANIBAL LIZARAZO MORENO,13540289,,false,0
DARIO ANDRES CEBALLOS ERASO,12985365,,false,0
JUAN PABLO ARCE FERNANDEZ,94501515,,false,0
FAIVER PERDOMO,4895480,,false,0
PEDRO RUSSI QUIROGA,7311101,,false,0
ZARELLA MARQUEZ SOLANO,56088540,,false,0
JACKELINE ABREO ALCOCER,56081246,,false,0
LUZDARIS RODRIGUEZ BRITO ,56054681,,false,0
YENIFER PAOLA CASTELLANOS PAREJA ,1124029395,,false,0
JORGE ENRIQUE VIVAS GUTIERREZ,79286026,,false,0
FANNY CECILIA SEPULVEDA DUARTE,51691712,,false,0
ANA MILENA GONZALEZ MORENO ,31588999,,false,0
NATALIA CAMPO CABRERA,31602498,,false,0
NORHA ANDREA RIVILLAS SALGADO ,42120361,,false,0
DIANA MILENA OSORIO ECHAVARRIA ,42123824,,false,0
JEIDY ESMERALDA ROA VELASQUEZ,1026550978,,false,0
KRYSTEL IVETTE PAEZ SAAVEDRA,1032427956,,false,0
GILARI ALEXANDRA DUQUE NIETO,1030542718,,false,0
LAURA FERNANDA ALVAREZ BALLESTEROS,1095934727,,false,0
CLAUDIA JANETH ARENAS BARCENAS,63480965,,false,0
OMAIRA ARCINIEGAS GOMEZ,63460033,,false,0
LAURA MARIA CASTELLANOS,1032439032,,false,0
HEIDI PATRICIA ESCORCIA,52494842,,false,0
KAREN LILIANA TARAZONA,1030599023,,false,0
FRANCY LORENA MEDINA OLAYA,1020786495,,false,0
ALEXANDER GALINDO RUIZ,80423793,,false,0
LUIS ALBERTO URREGO BEJARANO,79046395,,false,0
JENNY PAOLA GONZALEZ PADILLA,1012347231,,false,0
CATALINA GARCIA GOMEZ,42152481,,false,0
LYDA ERIKA CRUZ,52227912,,false,0
DEISY CAROLINA GEMADE FORERO,1032371902,,false,0
LUZ ANDREA VEGA FORERO ,35426901,,false,0
ANDREA CAROLINA RODRIGUEZ,33102228,,false,0
YOLANDA MONTOYA,42780267,,false,0
YANETH RUEDA,63481670,,false,0
MARIA DEL PILAR RENDON,43725041,,false,0
ANA MARIA BETANCUR,43740019,,false,0
SANDRA MILENA LONDOÑO,43841439,,false,0
MARICELA LOAIZA,31429213,,false,0
CARMEN ALICIA AMADO MEZA,22467319,,false,0
ZULEIKA AFRICANO,32707065,,false,0
ELIANA BARRIOS LLINAS,32783721,,false,0
JEIMY LORENA MARTIN,52432687,,false,0
ANA HERLIZ LEON,52078112,,false,0
MARTHA RODRÍGUEZ,51919696,,false,0
DIANA CAROLINA REYES GONZALEZ,53015159,,false,0
VIVIANA SANCHEZ HUERTO,52153503,,false,0
CLAUDIA ANGELICA ACERO,52430288,,false,0
LILIANA BELEN GONZALEZ MATTOS,32752031,,false,0
ANGELA CORINA MARTINEZ MOLINA ,32829961,,false,0
EDNA LUZ PATERNINA VERGARA,64556148,,false,0
MERCEDES STELLA LUGO PACHON,39753311,,false,0
ANA RITA RODRIGUEZ VALERO,52056540,,false,0
FABIOLA VILLARRAGA RINCCON,51815970,,false,0
MIGUEL ANDRES RIVERA OVALLE,1023901389,,false,0
ANDRES FELIPE GONZALEZ,80040798,,false,0
GEOVANNY BARON TORRES,79753301,,false,0
LINA MARIA HERNANDEZ ROMAN ,42012077,,false,0
ANA MILENA JARAMILLO ,42128999,,false,0
ADRIANA NOREÑA MUÑOZ ,42082404,,false,0
MARISEL SIERRA ROLDAN,1063276593,,false,0
ANA MERCEDEZ DAZA BENITEZ,1065658110,,false,0
NELLY DEL PILAR SANCHEZ CAÑAVERA,34997009,,false,0
YOLIMA MARTINEZ HERNANDEZ,22468613,,false,0
NAYTU MENDOZA CARRILLO,32763829,,false,0
HEIDY OLIVEROS RONCALLO,55312981,,false,0
JULIAN ANDRES USMA PATIÑO,8032519,,false,0
ALVARO HERNAN CORREA HINCAPIE,71775843,,false,0
DANIEL LEONARDO VARGAS JIMÉNEZ,1030624840,,false,0
LUIS KEVIN TRIVIÑO APONTE,1032445000,,false,0
DANIEL ROLANDO MORA SUAZA,14295303,,false,0
JAIRO RAMIREZ VARANDICA,16772700,,false,0
CLAUDIA MILENA LOAIZA TIQUE,1026275787,,false,0
JOHN ALEXANDER CARO BECERRA,1014242824,,false,0
EDWIN ANDRES HERRERA TRUJILLO,80816403,,false,0
CAMILO ALBERTO LOPEZ CIFUENTES,1032387215,,false,0
ANDRES FELIPE SALGADO UMBARILA ,1032465912,,false,0
SEBASTIAN ALONSO LEGUIZAMO CANTOR ,1019073681,,false,0
ANDRES GILBERTO GIRALDO FERIA,1070600192,,false,0
THOMAS RICARDO GUALDRON PINTO,91079289,,false,0
JOSE MIGUEL BURGOS ,1020803480,,false,0
ANDRES SANTAMARIA ,1075658218,,false,0
EDWIN HERNANDO ESCOBAR AHUMADA,79710377,,false,0
PAOL EDWIN MANZO,79649715,,false,0
MANUEL FERNANDO BOHORQUEZ LEURO,1019020071,,false,0
DANNY RIOS MARIN,80830953,,false,0
OSCAR TORRES,80796471,,false,0
JULIAN ESLAVA,80763167,,false,0
YEISON ESTEBAN GUTIERREZ OTALORA ,1072194707,,false,0
JUAN CAMILO JARAMILLO ORTIZ ,1018456406,,false,0
ANDRES FELIPE PULGARIN SILVA ,16375765,,false,0
HENRY SAA CANO,94072562,,false,0
LINA ALEJANDRA CUELLAR DUQUE,1014200856,,false,0
YEIMI TATIANA RODRIGUEZ CAMELO ,1016089264,,false,0
CATALINA PIZANO FRANCO,43254641,,false,0
MARIA SUSANA VASQUEZ ,1015411590,,false,0
VIVIANA BEJARANO,52896232,,false,0
VIVIANA LEON,52349028,,false,0
MIGUEL ANGEL CHAVARRO APONTE,1024524128,,false,0
MARIA ALEJANDRA PEDRAZA,1030619559,,false,0
ANDRES ZARATE,80206491,,false,0
CARLOS ANDRES BAQUERO,11413568,,false,0
ANGELA PATRICIA GOMEZ ESTUPIÑAN,1015414819,,false,0
VANESSA ESTEFANIA GARCIA ROCHA,1014239966,,false,0
IVONNE EDITH CORTES TAMAYO,53107482,,false,0
EDNA ROCIO SALAS MARTINEZ,53107212,,false,0
EMMANUEL BUITRAGO MONTERO,1013608450,,false,0
JUAN SEBASTIAN POMBO GARCIA,1026263884,,false,0
CARLOS ANDRÉS CARRILLO GARCÍA,80192566,,false,0
JUAN MARTÍN SILVA BUCHELI,1018417348,,false,0
ADRIANA GIL GARCÍA ,35220928,,false,0
JULIANA IBETH CASTRO GONZALEZ,1022373898,,false,0
JOSE DANILO VIRGUEZ JARAMILLO,1020741290,,false,0
LAURA MARIA PAEZ AMADOR,1019012486,,false,0
JENNY JOHANA BALLEN,52806752,,false,0
ELIANA VANESSA NEUSA,1030537094,,false,0
DEISY SOLAGNE PINZON FUENTES ,51893613,,false,0
MARIA DEL PILAR MARIN SANCHEZ,51958797,,false,0
LUZ MARINA GUTIERREZ,52084218,,false,0
NELSON RAMOS ROBAYO,79050483,,false,0
ALBEIRO VELEZ HOLGUIN,16285866,,false,0
NATHALY APRAEZ MONTOYA,1107066727,,false,0
HENRY GALLO(CORDINADOR),79642736,,false,0
LINA MARIA ARISTIZABAL FRANCO (DEPORTISTA),25174350,,false,0
GLORIA ESPERANZA GARCIA OSORIO,63508161,,false,0
LUIS ALBERTO SANDOVAL SILVA,13843772,,false,0
REYNALDO MANTILLA LEMUS,91270115,,false,0
NATALIA SALAZAR ,1037616555,,false,0
JULIANA ALVAREZ ,43876059,,false,0
MARIA JOSE JIMENEZ ,1039465351,,false,0
FRANCSCO JAVIER HERRERA VELASQUEZ,94073833,,false,0
JAIRO ALFONSO FERNANDEZ OLAYA,94413698,,false,0
MILTON DAVID CASTRO GARCES,16930152,,false,0
GEISON DAVID SERRATO PEREZ,1023885806,,false,0
ALVARO SANTIAGO ZULUAGA CASTAÑO,1075272365,,false,0
NELSON ENRIQUE MORALES ESQUIVEL,7061517,,false,0
ANDREA YEPES,53084707,,false,0
ROCIO DEL PILAR PEDRAZA,53011172,,false,0
PILAR CEPEDA,52822599,,false,0
JULIANA TELLO ORTIZ,31574309,,false,0
TATIANA ANDREA SALGADO,1144151931,,false,0
SEBASTIAN ESCOBAR POSADA,1144152989,,false,0
ERIKA RUIZ,1018425097,,false,0
CATALINA CONTRERAS,1014215580,,false,0
DIANA PAOLA ANGEL,1075651196,,false,0
ISIS ASTRID TOLOSA TORRES,52524146,,false,0
MARTHA YANETH RAMIREZ ,52309205,,false,0
JUAN CARLOS DURAN,80088081,,false,0
JUAN FRANCISCO REYES ,80547026,,false,0
JOSE MARIA RESTREPO,80196267,,false,0
WILLIAM JAVIER PRIETO FAJARDO,79503109,,false,0
GERMAN AUGUSTO FORERO RAMIREZ,93409782,,false,0
LUIS ANTONIO CAICEDO CRUZ,1110463645,,false,0
LEIDY TATIANA DUQUE PETRO ,1036636545,,false,0
JOSE ARTURO GOMEZ SANCHEZ,7228002,,false,0
JHEISER ENRIQUE TORRES BERMUDEZ,79864715,,false,0
ALFONSO ALFREDO LÓPEZ DÍAZ ,10879692,,false,0
EDUARDO ENRIQUE ESPINOSA PASTRANA,78695850,,false,0
DILIA ESTHER MOLINA FONTALVO,1129567384,,false,0
LUCY ESTELA RIVAS TORDECILLA,34983515,,false,0
NIDIA MARLEN CHITIVA MENDEZ,52116367,,false,0
MAGDA PATRICIA RIVERA RICO,52123051,,false,0
RICARDO ANDRES VARELA ARENAS,80195628,,false,0
MARIA ALEJANDRA VELANDIA GRANADOS,53070884,,false,0
DIANA MARCELA MARIN ALVAREZ,42111788,,false,0
JURANIS MAZUERA HURTADO,1140852778,,false,0
YASLEIDIS GILMA SALGUEDO ALMANZA,1079886529,,false,0
ADRIANA SILVA MONCALEANO,39564817,,false,0
CESAR AUGUSTO PRADA PAVA,11319040,,false,0
 SANDRA LILIANA GOMEZ SUAREZ,65743375,,false,0
GLORIA ELENA GARZON GOMEZ,63481957,,false,0
PAULA MARCELA VACCA MANRIQUE,53115132,,false,0
MARIA JESSENIA BOTIA CUEVAS,1018477503,,false,0
OSCAR ENRIQUE RODRIGUEZ,79857741,,false,0
ANDRES MAURICIO BORRERO,79794832,,false,0
YUDY ELENA FRANCO REYES,22551347,,false,0
FARIDE ORTIZ ELZIR,51994431,,false,0
JOSE ALDEMAR LINARES BENITEZ,79297327,,false,0
ESTEBAN LINARES ROJAS,1013647734,,false,0
MAGDA GALINDO,66835202,,false,0
MARIA CATHERINE PARDO GONZALEZ,52152921,,false,0
PENAGOS NUÐEZ CLAUDIA SHIRLEY,52770562,,false,0
LUISA FERNANDA NARVAEZ GALVIS,1018467675,,false,0
KEIBYS YANIN MARTINEZ FUENTES,52918781,,false,0
LINDA NELLY GOMEZ VIVAS,52953876,,false,0
JACQUELINE GALLEO GOMEZ,38665122,,false,0
LYDA GALLO CUEVAS,52861536,,false,0
EDUARDO ENRIQUE LOPEZ NARVZEZ,1042417905,,false,0
JHON JAIRO ZAPATA MURIEL,94402279,,false,0
FREDY ANDRE MORENO ORJUELA,94501961,,false,0
ALEXANDER TROYANO LEUDO,6384493,,false,0
GUSTAVO ADOLFO VELANDIA CHAVEZ,16928384,,false,0
CESAR AUGUSTO OJEDA ECHEVERRY,94520280,,false,0
ANDREA PAOLA SIERRA HERNANDEZ,52745855,,false,0
CARMEN ALICIA TOVAR OYOLA,52698846,,false,0
MARICELA CIFUENTES RODRIGUEZ,1023909527,,false,0
ADRIANA DEL PILAR VALENCIA ARTULUAGA,52441161,,false,0
DIANA PAOLA GARCÍA PRIETO,1013627147,,false,0
LADY TATIANA CHAVES RODRIGUEZ,1014291393,,false,0
DANIELA CRUZ OCAMPO,1110583029,,false,0
ALEXANDRA GARCIA CAICEDO,1110546017,,false,0
LILIANA ANDREA JIMENEZ PEREZ,1045739014,,false,0
JESSICA MEDRANO ESPAÑA,1143144653,,false,0
ADRIANA BURGOS DIAZ,1067886526,,false,0
JORGE ALEXANDER MEDINA MONTAÑEZ,80101433,,false,0
LUIS MANUEL OSPINA DUEÑAS,79359394,,false,0
HELVER ORLANDO PATARROYO ALARCON,79415990,,false,0
JORGE ELIECER BONILLA VEGA,84038212,,false,0
DIEGO ALEJANDRO AMAYA MONTEALEGRE,80089669,,false,0
JUAN DAVID VENEGAS BAUTISTA,1014259655,,false,0
NATALIE VALDEZ ORJUELA,53152987,,false,0
CARINA MARCELA GARCÍA,31656844,,false,0
SALLY ESTHER MAYORGA LOPEZ,63472962,,false,0
MERCEDES TORO RUBIO,63466900,,false,0
SONIA JULIETH GOMEZ GIRALDO,1032398372,,false,0
FRANCIA MARCELA LEON QUIROGA,1094367074,,false,0
LACIDES MANUEL LÓPEZ PUPO,1017151735,,false,0
SANTIAGO ECHEVERRY ESPINOSA,1152203205,,false,0
JOHN MARIO ATEHORTUA ORTIZ,1037572716,,false,0
DUVAN ERLEY ARISTIZABAL SERNA,1128272902,,false,0
LUIS ALVARO TRIVINO GOMEZ,1075680605,,false,0
VIVIANA CASTRO FIERRO,42162066,,false,0
NUBIA TAPIA,52189988,,false,0
DENIS CAMILA AVILA,1018447629,,false,0
NANCY ROCIO JIMENEZ,53017198,,false,0
KAROLINA RUIZ,1022935517,,false,0
SANDRA MILENA SERRANO,52424564,,false,0
GINA MELO,1012362433,,false,0
DEISY RIVEROS,1022925355,,false,0
LAURA TRIANA,1014222311,,false,0
DELSY LEOTTAU,52767969,,false,0
CATHERINE VARGAS,1022344656,,false,0
MARIA CRISTINA PACHON ALVARADO,46676880,,false,0
ANA MILENA BAENA RUBIO,1047447851,,false,0
ZURALMYS FONTALVO SARMIENTO,30840443,,false,0
VIVIANA ESTHER HESSEN ALVAREZ,50938296,,false,0
HEINY PAOLA FORTICH YEPES,1047473673,,false,0
FEDRA ANDREA BORDA BURGOS,52903445,,false,0
DAIHANA ANDREA PARRA LOPEZ,1076620347,,false,0
RIVERA MOLINA CHRISTIAN CAMILO,1085266316,,false,0
MARIO FERNANDO GUERRERO,94154910,,false,0
JHON EDISON GACHA,80903778,,false,0
JOSE LUIS PAMPLONA,1130668770,,false,0
JOSE LUIS MUÑOZ,10306721,,false,0
JULIAN PEREZ SILVA,1090364680,,false,0
HAROLD ANDRES GUERRA SUAREZ,1065581386,,false,0
JOHN WALTER CONTRERAS OVIEDO,79629558,,false,0
SAUL ENRIQUE SAMPAYO FERNÁNDEZ,77090422,,false,0
CARLOS EDUARDO TAPIA ARRIETA,1052955655,,false,0
MIGUEL ANGEL RINCONES BERMUDEZ,1065606748,,false,0
IMEL PEREZ ARDILA,1065573262,,false,0
MARIA ALEJANDRA BARRETO ROMERO,1065622460,,false,0
WENDY JOHANNA MARTINEZ MERCHAN,1065564959,,false,0
LILIAN CASADIEGO LEONES,49774762,,false,0
JOHANA MENDOZA,40944458,,false,0
DEYSI ADRIANA LUQUEZ RAMIREZ,49796600,,false,0
LEYLA ESTHER PADILLA MAESTRE,49773160,,false,0
YULI MAGALY ANTOLINEZ MEJIA,1078348085,,false,0
YOLIMA HURTADO HERRERA,1118287999,,false,0
INGRID ARGOTE DELGADO,1107045256,,false,0
NAFTALY FRANCO PERDOMO,1130639775,,false,0
ANA MILENA OROZCO CHARRIA,1144035536,,false,0
ISABEL CRISTINA HERRERA RODRIGUEZ,29876826,,false,0
HANNA KARIN AMAZO ORTIZ,1015424081,,false,0
LUISA FERNANDA GONZÁLEZ RUBIANO,1019037635,,false,0
LADY DAHIAN ACOSTA LONDOÑO,1016048642,,false,0
LIZETH ALEJANDRA CASERES TUSSO,1016098822,,false,0
ELIANA MARGARITA ANDRADE MORENO,1082925485,,false,0
MONICA LORENA CARDONA SOSA,1130588861,,false,0
OSWALDO RODRÍGUEZ CASTELLANOS,80181551,,false,0
DARWIN FERNEY PINTO LEON,1022346148,,false,0
YOHAN PERNETT HERRERA,79714657,,false,0
EDWIN EMIRO CUBIDES GUZMÁN,1053322882,,false,0
ESAU VELASCO ORTEGA,80186554,,false,0
JAVIER AYALA RODRÍGUEZ,79567670,,false,0
ANGELA MARIA GUERRERO ALVARADO,1085305502,,false,0
ANDREA CAROLINA CARVAJAL AGUIRRE,36754784,,false,0
ADRIANA YOLANDA CALVACHE ZAMBRANO,36752561,,false,0
CLAUDIA LORENA DE LOS RIOS HIDALGO,59833399,,false,0
MONICA ALEJANDRA PINEDA BRAVO,37123670,,false,0
VALLEJO AGUDELO DORA ELCY,39444238,,false,0
LUIS CARLOS PAZOS VITERI,1087409206,,false,0
DUBAN ANDRES LASSO ARANGO,13070496,,false,0
RICARDO HERNAN GUERRERO BENAVIDES,98382965,,false,0
DAVID GREGORIO AYALA BRAVO,1085254948,,false,0
EDGAR EDUARDO MORALES LOPEZ,98137310,,false,0
SANDRO JOHN MEJIA QUEMA,98389925,,false,0
DIANA DEL PILAR ORDUZ MORENO,1015421079,,false,0
CINDY PAOLA CRUZ PIRAQUIVE,1022326706,,false,0
DIANA KATERINE HERNANDEZ GARCIA,1121875109,,false,0
PAOLA ANDREA JIMENEZ,53028572,,false,0
ADRIANA MARIA AGUIRRE BETANCURTH,1094890123,,false,0
MONICA ALEJANDRA VANEGAS GALEANO,1098643025,,false,0
JACKELINE RONCANCIO F,52044935,,false,0
JULIANA BUSTOS,1001064068,,false,0
ANGELICA RODRIGUEZ,53083834,,false,0
FABIOLA BERMUDEZ MONTERO,52518577,,false,0
DIANA MARCELA MONTOYA,1022951206,,false,0
QUIÐONES GARCES OLGA MIREYA,51867163,,false,0
LUIS FERNANDO FAJARDO GUTIERREZ,79839889,,false,0
EDWIN HARVEY QUINTERO ALMANZA,79757930,,false,0
JUAN GABRIEL RODRIGUEZ MENDIVELSO,1032410204,,false,0
JESUS ALBERTO AMAYA AMAYA,5759364,,false,0
JUAN PABLO AMAYA GARCIA,1070006405,,false,0
WILMER FERNY SEGURA,79639481,,false,0
EDWIN FERNEY CABRA APONTE,1018425896,,false,0
EDWIN ANDRES VILLAMIL BACARES,80819034,,false,0
EDWAR ALEXANDER SAVIO LUGO,80578339,,false,0
JOSE LUIS BUSTOS SOGAMOSO,1030667789,,false,0
YAMIR ALEXANDER CABALLERO SANABRIA,1078368556,,false,0
ERNESTO VARON YELA,1110559158,,false,0
JUAN SEBASTIAN ALCARAZ VEGA,1128472368,,false,0
EDISON OSWALDO CARMONA CARDONA,71291695,,false,0
ARLEX FERNANDO LOPEZ MEDINA,76318808,,false,0
JOHN ALEXANDER ARISTIZABAL GIRALDO,1017137662,,false,0
VANESA MARIN,29360644,,false,0
NATALIA IVONNE CUTIVA,1143829929,,false,0
LEYDI YURANI MORENO,1130615103,,false,0
MYRIAM ANDREA DIAZ PEREZ,67021526,,false,0
NATALIA CARVAJALINO NOREÑA,1151935249,,false,0
TATIANA PAOLA CHAVEZ,1061705342,,false,0
ROYCER STEVEN SIERRA CURE,1045694302,,false,0
JEISON DE JESÚS BELTRÁN PACHECO,72223278,,false,0
RAUL MARIO CASTRO ACUÑA,72219149,,false,0
JOSÉ GUZMÁN,72265506,,false,0
ADOLFREDO CARABALLO,1128061780,,false,0
ANDRES IVAN OSORIO,79945113,,false,0
DIEGO ANDRES GIRALDO,71292405,,false,0
JOHAN ANDRES CHAVARRIA,1128396655,,false,0
JAIR ESTEBAN DOMINGUEZ,1036603482,,false,0
LUIS FERNANDO MEJIA GARCIA,1130611632,,false,0
JUAN PABLO ALZATE SEPULVEDA,70329919,,false,0
JOSE CARLOS MANJARRES CASTAELLANOS,15648003,,false,0
LUIS MARIANO RUIZ ESPITIA,11001055,,false,0
ALFONSO DOMINGO MONTES CORDERO,1063079784,,false,0
MIGUEL DURANGO RANGEL,1042348897,,false,0
JAVIER ENRIQUE RODRIGUEZ MARTINEZ,73169813,,false,0
JEFFREY RAFAEL MERCADO OCHOA,72336772,,false,0
FRANCY LORENA PERDOMO SALAZAR,32855779,,false,0
DINA ANDREA DUERTE VILLAZON,1129567655,,false,0
LAURA OLIVEROS ARCE,1140827744,,false,0
MARLLYS COTES IGUARAN,40937305,,false,0
KAREN PAOLA MARIN BOLIVAR,1042456533,,false,0
ERIKA PAOLA RAMIREZ BARRIOS,1100398606,,false,0
JUAN RODRIGUEZ,80874938,,false,0
JHON VELEZ,1030543097,,false,0
CESAR AGUSTO NUÑEZ,1013577344,,false,0
LEONARDO CELIS,1059811950,,false,0
CARLOS MALAMBA,1072190468,,false,0
ALVARO JAVIER CAMARGO RAMÍREZ,1019054538,,false,0
GERMAN PÉREZ FANDIÑO,79528958,,false,0
OSORIO VALBUENA EDWIN JAVIER,1012442865,,false,0
JUAN SEBASTIAN GOMEZ ESTUPIÑAN,1015421079,,false,0
GUSTAVO ANDRES ARANGO ALFONSO,79967778,,false,0
HAIR ALBERTO CASTILLA RAMIREZ,1015406710,,false,0
OMAR FABIAN POVEDA BUITRAGO,80550399,,false,0
LUIS JONATHAN MELO ESTRADA,1022956886,,false,0
PABLO MAURICIO CARILLO GONZALEZ,80442587,,false,0
JEISON SEBASTIAN RODRIGUEZ GARZON,1024557695,,false,0
DANIEL RICARDO ASTAIZA TORRES,1014230314,,false,0
JUAN CARLOS MARTIN MOJICA,1012413865,,false,0
EDUARDO CORTES GANTIVA,1022334371,,false,0
ELKIN CASTRO MUÑOZ,79920520,,false,0
LEONARDO NARANJO LADINO,79380950,,false,0
OSCAR JAVIER VASQUEZ CASTRO,79724206,,false,0
HERNAN RAMIRO NUÑEZ CASTRO,80864105,,false,0
ALEXANDER SANCHEZ PEREZ,79854969,,false,0
WILLIAM ARMANDO CELIS MUÑOZ,81754659,,false,0
LUIS ARMANDO BUITRAGO VACA,80732063,,false,0
ELIANA VELANDIA,1018443941,,false,0
DIANA LORENA TOLOSA,1032385723,,false,0
ANGIE PAOLA ARCHILA,1000792130,,false,0
MARIA FERNANDA PENALOZA CORREDOR,1020809167,,false,0
LEIDY DAYANA TRIANA MURCIA,40326015,,false,0
LORENA MOJICA,1010162452,,false,0
ANDREA PATRICIA ERAZO,53167204,,false,0
JENNY PAOLA MUTIS,1014206561,,false,0
ANGELA ANDREA BENAVIDES,1013641977,,false,0
NANCY JOHANNA ZUBIETA RODRIGUEZ,53049728,,false,0
YURANNY YINETH ALBARRACIN,1015433067,,false,0
LEON SANCHEZ LISANYULI,1032407949,,false,0
CLAUDIA MARCELA VELASQUEZ,1015393384,,false,0
LAURA MAYERLI CHAVES MOYA,1012341289,,false,0
YULI LORENA GIRALDO DUQUE,1026270591,,false,0
CAROLINA HERNANDEZ GUERRA,53100399,,false,0
ANDREA CATALINA CORREA,52772302,,false,0
ANGELA MARIA GUILOMBO,1026251419,,false,0
JAIRO ANTONIO MUÑOZ SALDAÑA,1054555876,,false,0
HERNANDO JAVIER CANCINO VALDERRAMA,1127342097,,false,0
DAVID ALEJANDRO DELGADO AYALA,1030538418,,false,0
WILSON ALBEIRO LEMUS JIMENEZ,80755655,,false,0
JOSE ANTONIO VEGA ARGUELLO,1022338541,,false,0
ANDRES REINEL GOMEZ RUIZ,80921219,,false,0
WILLIAM PEÑA GALARZA,79472876,,false,0
RAMON ELIAS DUQUE RAMIREZ,79367058,,false,0
CRISTIAN DAVID PULIDO PEÑA,1022368188,,false,0
CHRISTIAN JACKSON MACIAS VALDES,86082754,,false,0
JUAN CARLOS GOMEZ ALVAREZ,1022363757,,false,0
FERNANDO SIGRIFEDO BASTIDAS OSORIO,16073324,,false,0
CARLOS ANDRES SANCHEZ PARDO,1121850588,,false,0
JIMMY JAVIER PENAGOS NUÑEZ,79999409,,false,0
WILINTON ALFONSO GUTIERREZ ROZO,86071120,,false,0
JOSE RICARDO POVEDA RAMIREZ,7702404,,false,0
JEFFER ARTURO ESTUÍNAN ROSAS,1049607203,,false,0
JHON JAIRO NARVAEZ TOVAR,7689651,,false,0
ELSA LILIANA MARTINEZ LONDONO,1055830368,,false,0
LEIDY VANESSA CARDONA CALLE,1020428309,,false,0
ANGELICA SEPULVEDA MONTENEGRO,52506597,,false,0
LEIDY PAOLA SANDOVAL,1033712719,,false,0
LIZETH ESTHEFANY SANCHEZ,1030697956,,false,0
GLORIA VIVIANA FORERO,53009631,,false,0
KATHERINE PENALOZA LEON,1098694715,,false,0
ELIZABETH SANCHEZ AMAYA,49694353,,false,0
CINDY LIZETH MARTINEZ,1030547191,,false,0
JAVIER BUENO,94429484,,false,0
COSME ANTONIO ESPINOZA,1032424403,,false,0
JOSE ANDRES HUERTAS,1013626014,,false,0
CAMILO ARTURO MORALES,1015424564,,false,0
CRISTIAN CAMILO CASTAÑEDA,80819339,,false,0
JONATHAN COSSIO MORENO,1024474694,,false,0
JUAN DE DIOS RIVEROS,79685242,,false,0
WILMER ALFONSO QUINTERO,80859231,,false,0
ROMELL OSWALDO MARTINEZ,80169060,,false,0
ALBERTO VELEZ AGUIRRE,79615730,,false,0
SEBASTIAN RODRIGUEZ,1053805431,,false,0
ANDRES HERNANDO BEDOYA,98553309,,false,0
GIOVANNY MARTINEZ,79874012,,false,0
NELSON JAVIER DUQUE ARBOLEDA,1088260856,,false,0
EDWIN ROZO,10019914,,false,0
OSCAR DANIEL GONZALEZ SUAREZ,1026257992,,false,0
MILTON CASTANO CASTANO,94527787,,false,0
JORGE EDISON TABARES ESCOBAR,18599447,,false,0
ALEJANDRA RAMIREZ,42016317,,false,0
GLORIA ELENA JIMENEZ RAMIRES,42073077,,false,0
DIANA MARCELA CARO NICAN,24338059,,false,0
EDNA YOLANDA ACHURY RODRIGUEZ,52119890,,false,0
CLAUDIA MARCELA GUAPACHA,1053774864,,false,0
DIANA LUCIA BERMUDEZ,42105880,,false,0
LUIS ALEXANDER MORALES MESA,1022366447,,false,0
CARLOS FELIPE ARIAS VANEGAS,80040877,,false,0
CARLOS ANDRES CHAVARRO RODRIGUEZ,1104697880,,false,0
WILSON FABIAN CRUZ VARGAS,1014253803,,false,0
DAVID CAMILO MURCIA GARCIA,1024560403,,false,0
JOHN HENRY GAITAN PATIÑO,80829557,,false,0
CRISTIAN CAMILO HERNANDEZ LOPEZ,1023947190,,false,0
DANIEL ESTEBAN SUAREZ POVEDA,1022398066,,false,0
ALDINEVER BECERRA OYOLA,1106788279,,false,0
MAWIN JARID PAY CEPEDA,6108922,,false,0
BRAYAN CAMILO MURILLO URRUTIA,1114834750,,false,0
EDGAR LAGOS CAMACHO,79714010,,false,0
EDWIN HERNANDO VARGAS DIAZ,1022926818,,false,0
FRANCISCO JAVIER RUEDA RODRIGUEZ,80001425,,false,0
GREGORIO JOSE NAVARRO SANABRIA,79796213,,false,0
JAVIER ARMANDO ORTIZ CORTAZAR,1032433845,,false,0
JONATHAN RODRIGUEZ CONTRERAS,1012403177,,false,0
NELSON RICARDO QUEVEDO HERRERA,1013594603,,false,0
NELSON VARGAS GUZMAN,79689099,,false,0
ALBERT GUSTAVO OVALLE FULA,80577761,,false,0
RUBEN DARIO GARCIA RUBIANO,79701103,,false,0
JOSE DANIEL CASTRO TORRES,79365057,,false,0
SERGIO ANDRES CASTANO GORDO,1072658776,,false,0
JORGE EDUARDO BARRAGAN,1032388144,,false,0
DANNY ALEXANDER CHIVATA CARREÑO,1030545267,,false,0
FREDY ALARCON REINA,79567518,,false,0
LUIS FELIPE MORA MOLINA,1090383691,,false,0
GUILLERMO JAVIER URREGO,1024513740,,false,0
NICOLAS URIBE ALARCON,1030653617,,false,0
OSCAR ARLEX MORALES,1031146664,,false,0
VICTOR HUGO GIRALDO,80051216,,false,0
ANDRES FELIPE GUERRERO,1030528024,,false,0
EDWIN ROLANDO GONZALEZ,74080922,,false,0
SEBASTIAN PEREZ,80248596,,false,0
MIGUEL ENRIQUE PEÑA PALOMINO,79865240,,false,0
LUIS LEONARDO CORREDOR SANCHEZ,1030560803,,false,0
JOSE DAVID TOVAR ESPINEL,1023961035,,false,0
CARLOS AUGUSTO WALTEROS ORJUELA,89009864,,false,0
FERNANDO ADOLFO OSPINA HURTADO,79053256,,false,0
PAULO ANDRES BETANCOURT FAJARDO,1144177825,,false,0
MANUEL HERNOBY TRIANA MANJARRES,94499289,,false,0
JOSE LUIS AMPUDIO CORTES,1144149468,,false,0
EDGAR MOSTACILLA VERGARA,94455257,,false,0
CRISTIAN DAVID CERON,1115076659,,false,0
CLAUDIA ISABEL PATIÑO FORERO,52254025,,false,0
LIZETH ALEJANDRA MEDINA CASTILLO,1110511947,,false,0
KATY TATIANA OSORIO FIERRO,1075272532,,false,0
STEPHANY ANDREA MONJE MOSQUERA,1075250562,,false,0
YULI BRIYID CORDOBA PASTRANA,1080292412,,false,0
YOHANA ANGARITA GALINDO,55068516,,false,0
IVON VIVIANA DUARTE URREGO,28538730,,false,0
ANDREA JULIETH SALGUERO ARANA,1110519449,,false,0
GLADYS STELLA GOMEZ APONTE,39700958,,false,0
DIANA PATRICIA GARCIA,65782419,,false,0
LEIDY VANESSA QUIROGA FERREIRA,1098613801,,false,0
EDNA ROCIO CAMPO ANDRADE,1081402917,,false,0
YESICA MARCELA PENA,1075263112,,false,0
JEFFERSON MAURICIO BARRETO ANGARITA,1110523565,,false,0
OSCAR HERNAN ROCHA MENESES,1110552151,,false,0
HERWIN SUAREZ MEDINA,1110455165,,false,0
JOSE JUNIOR QUIROZ INSIGNARES,1037613292,,false,0
JOSE LUIS COLLANTE FONG,1143431949,,false,0
BRAINNERG JAVIER RAMOS HERNANDEZ,1075264452,,false,0
BRYAN ALEXANDER ZULUAGA RIOS,1097401003,,false,0
DIEGO ISMAEL RIVAS LEIVA,5820426,,false,0
WILLIAM ALEXANDER VALENCIA CARDENAS,14011148,,false,0
JOSE LUIS LINARES LOZANO,93236491,,false,0
SANTIAGO FARFAN MUNOZ,1015410507,,false,0
JUAN DAVID PEREZ DUARTE,1110517434,,false,0
LUISA FERNANDA CAINA QUINTERO,52396288,,false,0
ROCIO DEL PILAR SUAREZ GOMEZ,37746484,,false,0
LISET MARCELA ACEVEDO,37615239,,false,0
NUBY JOLENY PINILLA,1098613556,,false,0
GENI ALEXANDRA SAAVEDRA FUENTES,37549847,,false,0
OSCAR ARTURO ALBA MARTINEZ,79406160,,false,0
HECTOR LIBARDO MUÑOZ TRUJILLO,83231034,,false,0
TULIO ENRIQUE VACA,79340042,,false,0
LEONEL SANCHEZ CUEVAS,79789760,,false,0
OMAR DAVID GONZALEZ FLECHAS,79938491,,false,0
IVAN ANDRES PINEDA RODRIGUEZ,80766666,,false,0
JULIO CESAR GALINDO,80035523,,false,0
ANIBAL ALCALA,1016015430,,false,0
FRANCISCO JAVIER AVELLANEDA PACHON,79865904,,false,0
JUAN CARLOS SANCHEZ LOZADA,11315582,,false,0
JHONATTAN FLOREZ PORRAS,1010201337,,false,0
JUAN ALEJANDRO CORTES GARZON,1077970869,,false,0
LEIDY JOHANA ROMÁN GÓMEZ,43183268,,false,0
ROSALBA RENGIFO HURATADO,66741440,,false,0
LAURA ALEJANDRA CALLE ZAPATA,1128431603,,false,0
ANGELICA MARIA MC.EWEN GUTIERREZ,1038118373,,false,0
MELISSA SÁNCHEZ RAMÍREZ,1026155600,,false,0
JULINA SUAREZ GALEANO,1037611836,,false,0
LINDA MILENA VARGAS CALLE,1128416866,,false,0
JOHANA ANDREA SOLER,53095813,,false,0
ANGIE PAOLA CAMPOS,1032381224,,false,0
LUISA FERNANDA ROBERTO,1015421752,,false,0
LUZ ELENA RAMIREZ,1019072114,,false,0
YEIMY ALEJANDRA TORRES,1023932881,,false,0
MARCELA BONILLA,52703405,,false,0
KAREN TATIANA MARTINEZ,53123136,,false,0
JUDY PAOLA PARDO,1032429964,,false,0
JEIMY RINCON,52900025,,false,0
LEONOR STELLA PERILLA,39617850,,false,0
OLGA QUINTERO DUARTE,52522565,,false,0
LAURA MARIA SANCHEZ,1098706656,,false,0
LUZ STELLA GONZALEZ TORRES,40370837,,false,0
DANIELA ALEJANDRA GARCIA LADINO,1012428349,,false,0
ESTEFANIA LOZANO SEQUERA,1030626369,,false,0
JOHANNA MARIA CELI,53103044,,false,0
YINETH FERNANDA GARCES VALENCIA,1002596084,,false,0
GERALDINE FRANCO CRUZ,1000128256,,false,0
MIRIAM KATHERIN MARTINEZ DIOSA,1015458593,,false,0
TATIANA MARCELA SOSA TORRES,40048290,,false,0
ERIKA LORENA CARDONA RAMIREZ,43914706,,false,0
MARIA LEONOR DIAZ RUBIO,68293132,,false,0
ZULMA YECENIA SUAREZ SANCHEZ,33376159,,false,0
CLAUDIA HELENA VARGAS SANCHEZ,52022831,,false,0
JENIFER MAGALY CHACON CHACON,1099209447,,false,0
YEIMY PAOLA LAITON MORALES,1099208277,,false,0
TRIANA CLAVIJO VICTOR,79427147,,false,0
AGUIRRE ARDILA JUAN CARLOS,79324026,,false,0
RIAÐO JAIMES DIANA YANNETH,52882811,,false,0
TRIVIÐO OCHOA ADRIANA PATRICIA,52160235,,false,0
SOTO BEDOYA MARIA FERNANDA,31983020,,false,0
ZAMBRANO ZAMBRANO PIEDAD,52030779,,false,0
VITELVINA ROMERO SANCHEZ,52838545,,false,0
SANDRA BORDA,53047646,,false,0
NATALIA ANDREA RUIZ RESTREPO,32240849,,false,0
DIANA MARCELA GONZALEZ URREGO,52294634,,false,0
FELIPE ALEXANDER JIMENEZ PACHECO,18004495,,false,0
ALEXANDER BRANGO RODRIGUEZ,11038047,,false,0
ANDREA ROYO,52539574,,false,0
DIANA VELANDIA,52792546,,false,0
CARLOS ANDRES ALVAREZ SALAZAR,1017137277,,false,0
JOSE LUIS GOMEZ IGIRIO,12637772,,false,0
FARK WILLIAM SERPA ARROYO,91496684,,false,0
JULIAN DAVID MAYA PEREZ,8027540,,false,0
JORGE ALEXANDER HURTADO GARCIA,98452390,,false,0
CARLOS ALBERTO ARTUNDUAGA,1118256619,,false,0
MANUEL LEONARDO NAVIA PERDOMO,1130607005,,false,0
DIEGO FERNANDO TOVAR,16375913,,false,0
GLORIA INES JIMENEZ MUNOZ,42679497,,false,0
MARIA FERNANDA GONZALEZ GARCIA,52144359,,false,0
LIZETH CATHERINE GARZON PIRABAN,1072714595,,false,0
PAOLA ANDREA HIGUITA RIOS,52792740   ,,false,0
CAROLINA CASTRO MORENO,1031153389,,false,0
ALEXANDRA ROMERO ROMERO,52030200,,false,0
JUAN CARLOS COAJI FANDIÑO,1010165647,,false,0
LUIS CARLOS NIÑO TORRES,1013583332,,false,0
EDILSON CADENA GARAVITO,1010163235,,false,0
MARIA DEL PILAR PEDRAZA,52096584,,false,0
MICHELLI VEGA TOHUS,52046730,,false,0
MARCELA CALLE URIBE,51780141,,false,0
JOSE ALBERTO SILVA LEON,12998080,,false,0
ENRIQUE MENESES,79275168,,false,0
MARYORY LÓPEZ,52302679,,false,0
HAROLD CAMELO,11259047,,false,0
WILSON VILLALBA,11434924,,false,0
EFRAÍN LOZANO,79424392,,false,0
ADRIANA M HERRERA F,39791965,,false,0
ROCÍO BLANCO,52179385,,false,0
LEONEL BARAHONA,1020799344,,false,0
JOHN JAIRO GONZÁLEZ,79860975,,false,0
ANUAR GARCÍA,11438850,,false,0
RAFAEL RODRÍGUEZ,79342825,,false,0
JAIRO CAMACHO RODRIGUEZ,79127411,,false,0
EDGAR GOMEZ,77026006,,false,0
LUIS LAMPREA,80427053,,false,0
FERNANDO TAMAYO,79582333,,false,0
BOLIVAR TOVAR,12195340,,false,0
ADOLFO LOPEZ BELTRAN,79247598,,false,0
MEYER MARTINEZ,80051291,,false,0
WILLIAM ROMERO,79879069,,false,0
JULIAN PINEDA,79735491,,false,0
CARLOS ORTIS,88215918,,false,0
FRANCISCO SEGURA,79648013,,false,0
ALEXANDER PINEDA,80092315,,false,0
LUIS RANGEL,4252977,,false,0
LUIS BERMUDEZ,79473033,,false,0
RAUL FONSECA,19314164,,false,0
NILSON CASTILLO,19471865,,false,0
OFELIA GASCA,93087827,,false,0
IVAN PEREZ,79115895,,false,0
EDNA MARGARITA RODRÍGUEZ MENDOZA,28948857,,false,0
FREDDY ANDREY CORONADO MORENO,79959538,,false,0
LUIS FELIPE HERRERA PINZON,79058220,,false,0
JESSICA MARÍA RAMOS AVENDAÑO,1130610417,,false,0
JENNIFER LEONOR ALVEAR DÍAZ,55300199,,false,0
NICOLÁS SEBASTIÁN GARCÍA VIDAL,1010197024,,false,0
CARLOS EDUARDO VARGAS CIFUENTES,80758500,,false,0
LUIS FELIPE DUQUE HERNANDEZ,1014223284,,false,0
SEBASTIÁN ROMERO SÁNCHEZ,1019126718,,false,0
ROBINSON YAIR GONZALEZ VILLANUEVA,1012371958,,false,0
ARGUELLO SERNA JORGE LUIS,79641603,,false,0
DURAN PACHECO DANIEL ERNESTO,1090433487,,false,0
GUATAQUIRA MILLAN CARLOS ANDRES,1014188267,,false,0
ESCOBAR RODRIGUEZ JUAN CARLOS,80727689,,false,0
VELASQUEZ RODRIGUEZ JOHAN ALBERTO,1033705556,,false,0
GARCIA UMBARILA JHON MARIO,1020825291,,false,0
BUITRAGO LEON WILSON,1012321918,,false,0
BAYONA CONTRERAS DERLY DAYANA,1022417858,,false,0
CAMPUZANO TORRES KEWIN GUSTAVO,1031166721,,false,0
GONZALEZ MURCIA DIEGO FERNANDO,1070946882,,false,0
SANCHEZ JARAMILLO MARCELA,52256100,,false,0
MARTINEZ PERDOMO DANIEL ANDRES,1024522776,,false,0
MOTTA NARVAEZ ALEXANDER,79514045,,false,0
VILLA ZULUAGA DANIEL FELIPE,1127962330,,false,0
CASTILLO RODRIGUEZ NORY CONSTANZA,52623902,,false,0
ACOSTA ROJAS MERCY YANETH,1012372832,,false,0
SALAMANCA SILVA ANGIE TATIANA,1073250496,,false,0
ROA MORENO OSCAR DANIEL,1015482431,,false,0
CARO GARZON LAURA MELISA,1031160523,,false,0
RUBIANO ARELLAN DAVID LEONARDO,1073685732,,false,0
ARIAS SOSA HECTOR ALFONSO,82393206,,false,0
GARCIA URQUIJO DIEGO D.LEON,79751722,,false,0
REYES FERNANDEZ LUZ DEISY,20689063,,false,0
FONSECA VARGAS YEISON ALEXANDER,79689377,,false,0
ORTIZ CIFUENTES DIEGO FERNANDO,1020737600,,false,0
LEIDY BEJARANO,1019071176,,false,0
CASTAÑEDA BALLESTEROS ANGIE KATERINE,1007933531,,false,0
SANCHEZ PACHON JORGE,1000793905,,false,0
CUERVO URQUIJO MIGUEL ANGEL,79685967,,false,0
GUZMAN ROMERO INGRID DAYANNA,1070307599,,false,0
SOSA CLAVIJO DAVID ALEXANDER,1073697916,,false,0
PEREZ HERRERA ALEJANDRO,1075657827,,false,0
SANCHEZ GARCIA DANIEL,1026567343,,false,0
NATALIA CASABIANCA OREJUELA ,39781478,,false,0
"TOMAS HERNANDEZ CASABIANCA
",1000795403,,false,0
OLGA LUCIA MONTERO MENESES,52020825,,false,0
ANA MARÍA BUITRAGO MONTERO,1018507678,,false,0
PEDRO LUIS BUITRAGO MONTERO ,1000951252,,false,0
JOSE MARIA JIMENEZ TUNON,575688,,false,0
MARIA ISABEL GONZÁLEZ ZULUETA,586491,,false,0
MARTÍN JIMÉNEZ GONZÁLEZ,586477,,false,0
MARTHA JIMÉNEZ GONZÁLEZ,586487,,false,0
PAULA JIMÉNEZ GONZÁLEZ,586485,,false,0
ANA PATRICIA JIMÉNEZ GONZÁLEZ,586479,,false,0
LILIANIS OSPINO   ,45690022,,false,0
ARAM ZAKZUK    ,1001898145,,false,0
HERNANDO RODRIGUEZ SANDOVAL ,79614161,,false,0
ADRIANA BEATRIZ NARANJO POSADA  ,43744822,,false,0
JUAN MIGUEL RODRÍGUEZ NARANJO ,1019907990,,false,0
