Adriana Chalarca,1192766412,,101,true,2019-11-05T21:42:03.409Z
Alain Chalem,79962949,,102,true,2019-11-05T21:42:08.080Z
Alberto Zapata,1000003,,103,false,0
Ana Maria Ramirez,1000004,,104,false,0
Andrea Jaramillo,1000005,,105,false,0
Andrea Salazar,1000006,,106,false,0
Andres Cardozo,1000007,,107,false,0
Andres Carlesimo,1000008,,108,false,0
Andres Felipe Robayo,1000009,,109,false,0
Andres Porras,1000010,,110,false,0
Arnaldo del Valle,1000011,,111,false,0
Aura ,1000012,,112,false,0
Aura Bosa,1000013,,113,false,0
Beatriz Zapata,1000014,,114,false,0
Berenice Valbuena,1000015,,115,false,0
Camilo Diaz,1000016,,116,false,0
Carlos Arango,1000017,,117,false,0
Carlos Ariel Gomez,1000018,,118,false,0
Carlos bedoya,1000019,,119,false,0
Carlos Galindo,1000020,,120,false,0
Carlos Jedeon,1000021,,121,false,0
Carlos Mario Quintero,1000022,,122,false,0
Carlos Mora,1000023,,123,false,0
Carlos Platz,1000024,,124,false,0
Carlos Zenteno,1000025,,125,false,0
Carmen Viviana Valdi,1000026,,126,false,0
Catalina Lozano,1000027,,127,false,0
Constanza Ardila,1000028,,128,false,0
Daniel Avellaneda,1000029,,129,false,0
David Patiño,1000030,,130,false,0
Edison Mesa,1000031,,131,false,0
Federico Roca,1000032,,132,false,0
Felipe,1000033,,133,false,0
Felipe Villa,1000034,,134,false,0
Fernando Briceño,1000035,,135,false,0
Francisco Herrera,1000036,,136,false,0
Freddy Rodriguez,1000037,,137,false,0
Gabriel Lezcano,1000038,,138,false,0
German Giraldo,1000039,,139,false,0
German Velasquez,1000040,,140,false,0
Guillermo Valbuena,1000041,,141,false,0
Isam Hauchar,1000042,,142,false,0
Javier Andres Suarez,1000043,,143,false,0
Javier Rojas,1000044,,144,false,0
Jenny Valencia,1000045,,145,false,0
Jhon William Pineda,1000046,,146,false,0
Jimmy Char,1000047,,147,false,0
Joaquin Melendez,1000048,,148,false,0
Jorge Ortega,1000049,,149,false,0
Jose Cardona,1000050,,150,false,0
Jose Luis Latorre,1000051,,151,false,0
Juan Britton,1000052,,152,true,2019-11-05T21:42:13.455Z
Juan Carlos Villescas,1000053,,153,false,0
Juan Escobar,1000054,,154,false,0
Juan Guillermo  Lopera,1000055,,155,false,0
Juan Javier Guila,1000056,,156,false,0
Juan Manrique,1000057,,157,false,0
Juan Manuel Concha,1000058,,158,false,0
Julian Rubiano,1000059,,159,false,0
laura Londoño,1000060,,160,false,0
Leidy Patricia Martinez,1000061,,161,false,0
Leonardo Jimenez,1000062,,162,false,0
Lina Maria Herrera,1000063,,163,false,0
Luis Fernando Castro,1000064,,164,false,0
Luis Fernando Garcia,1000065,,165,false,0
Luis Plata,1000066,,166,false,0
Luz Neila Muñoz,1000067,,167,false,0
Magali Gonzales,1000068,,168,false,0
Magaly Gonzalez,1000069,,169,false,0
Maria Camila Ortega,1000070,,170,false,0
Maria Del Pilar Ocampo,1000071,,171,false,0
Maria Fernanda Zuluaga,1000072,,172,false,0
Maria Luisa Escolar,1000073,,173,false,0
María Victoria Fernandez,1000074,,174,false,0
Marina Giraldo,1000075,,175,false,0
Mario Espana,1000076,,176,false,0
Marisol Castelblanco,1000077,,177,false,0
Maryury Martinez,1000078,,178,false,0
Miguel A. Mendez,1000079,,179,false,0
Miguel Boyano,1000080,,180,false,0
Natalia Gomez ,1000081,,181,false,0
Omar Mantilla,1000082,,182,false,0
Pablo Bravo,1000083,,183,false,0
Pablo Trujillo,1000084,,184,false,0
Paola Ibanez,1000085,,185,false,0
Paola Peña,1000086,,186,false,0
Patricia Martinez,1000087,,187,false,0
Paula Robles,1000088,,188,false,0
Rafael Antonio Martinez,1000089,,189,false,0
Rafael Rosario,1000090,,190,false,0
Ricardo Bohorquez,1000091,,191,false,0
Rodrigo De GuzmaYo,1000092,,192,false,0
Rodrigo Pachon,1000093,,193,false,0
Rodrigo Sanchez,1000094,,194,false,0
Sandra Garzon,1000095,,195,false,0
Sandra Malaver,1000096,,196,false,0
Santiago Cruz,1000097,,197,false,0
Santiago Jimenez,1000098,,198,false,0
Santiago Zapata,1000099,,199,false,0
Sebastian Rojas,1000100,,200,false,0
Sebastian tellez,1000101,,201,false,0
Sergio Armado,1000102,,202,false,0
Simon Giraldo,1000103,,203,false,0
Sonia Peña,1000104,,204,false,0
Soraya Cifuentes,1000105,,205,false,0
Valeria Florez,1000106,,206,false,0
William Medina,1000107,,207,false,0
Wilton Ronderos,1000108,,208,false,0
Yeison Salazar,1000109,,209,false,0
Zuri Valencia,1000110,,210,false,0
 Mónica Guerrero,1000111,,211,false,0
Adriana Ceballos,1000112,,212,false,0
Agostino Almeida,1000113,,213,false,0
Agostino Almeida,1000114,,214,false,0
Alberto Samuel Yohai,1000115,,215,false,0
Alejandro Pacheco,1000116,,216,false,0
Alonso Herrán,1000117,,217,false,0
Blanca Cardona,1000118,,218,false,0
Camilo Juárez,1000119,,219,false,0
Carlos Felipe Escobar - ,1000120,,220,false,0
Carlos Hugo Ramírez,1000121,,221,false,0
Carlos Maria Estrada - ,1000122,,222,false,0
Carmen Morales,1000123,,223,false,0
César León,1000124,,224,false,0
Claudia Núñez,1000125,,225,false,0
Claudia Núñez,1000126,,226,false,0
Constanza Alarcón ,1000127,,227,false,0
Cristian Gil,1000128,,228,false,0
Daniel Sebastían Bustos Echeverry,1000129,,229,false,0
Diana Silva,1000130,,230,false,0
Felipe Castro,1000131,,231,false,0
Germán López,1000132,,232,false,0
Hernán Fuentes ,1000133,,233,false,0
Iván Castaño,1000134,,234,false,0
Iván Mantilla,1000135,,235,false,0
Jehudi Castro,1000136,,236,false,0
Jessica Faieta,1000137,,237,false,0
Jimena Puyana,1000138,,238,false,0
Jose Manuel Restrepo,1000139,,239,false,0
Juan Andrés Beltrán,1000140,,240,false,0
Juan David Martín,1000141,,241,false,0
Julio César Castañeda,1000142,,242,false,0
Kim Doo Sik ,1000143,,243,false,0
Laura Valdivieso,1000144,,244,false,0
Laura Vélez,1000145,,245,false,0
Lina Arbeláez,1000146,,246,false,0
Luis Felipe Sarmiento ,1000147,,247,false,0
Luisa Vélez,1000148,,248,false,0
Maria Juliana Ruiz,1000149,,249,false,0
Maria Juliana Ruiz,1000150,,250,false,0
Maria Victoria Angulo ,1000151,,251,false,0
Miguel Durán,1000152,,252,false,0
Natalia Barrera,1000153,,253,false,0
Pablo Márquez,1000154,,254,false,0
Raiza DeLuque Curiel,1000155,,255,false,0
Ricardo Lozano,1000156,,256,false,0
Roxane Noffra,1000157,,257,false,0
Sandra Pascua ,1000158,,258,false,0
Sául Pineda,1000159,,259,false,0
Semn Paek ,1000160,,260,false,0
Shirley Clavijo,1000161,,261,false,0
Sofia Paredes,1000162,,262,false,0
Sylvia Constaín,1000163,,263,false,0
Victor Manuel Muñóz,1000164,,264,false,0
Zoila Vargas,1000165,,265,false,0
Alebanana,1000166,,266,false,0
Alejandro Escallón,1000167,,267,false,0
Alejandro Reyes,1000168,,268,false,0
Andrea Rubio,1000169,,269,false,0
Andrea Serna,1000170,,270,false,0
Camila Martínez,1000171,,271,false,0
Catalina Gomez,1000172,,272,false,0
Cinthya Dussan,1000173,,273,false,0
Claudia Ramos,1000174,,274,false,0
Daniela Correal,1000175,,275,false,0
Daniela Legarda,1000176,,276,false,0
Daniela Salazar,1000177,,277,false,0
Daniela Vidal,1000178,,278,false,0
Diego Saenz,1000179,,279,false,0
Diego Santos,1000180,,280,false,0
Isabel Henao,1000181,,281,false,0
Ita Maria,1000182,,282,false,0
Ivan Garcia,1000183,,283,false,0
Johana Medrano,1000184,,284,false,0
Jorge Rodriguez,1000185,,285,false,0
Juan Diego Cano,1000186,,286,false,0
Juan Esteban Sampedro,1000187,,287,false,0
Juan Pablo Socarrás,1000188,,288,false,0
Jun Felipe Cadavid,1000189,,289,false,0
Kika Vargas,1000190,,290,false,0
Lina Cantllo,1000191,,291,false,0
Mafe Mendez,1000192,,292,false,0
María José Martínez,1000193,,293,false,0
Nancy Loaiza,1000194,,294,false,0
Nicolás de Zubiría,1000195,,295,false,0
Ricardo Pava,1000196,,296,false,0
Santiago Rojas,1000197,,297,false,0
Sebastián Cardona,1000198,,298,false,0
Sebastián Múnera,1000199,,299,false,0
Sergio Rada,1000200,,300,false,0
Simon Pulgarin,1000201,,301,false,0
Sofía Medrano,1000202,,302,false,0
Tito,1000203,,303,false,0
Adriana Bernal,1000204,,304,false,0
Alejandra Camacho,1000205,,305,false,0
Alejandro González,1000206,,306,false,0
Alejandro Rincón,1000207,,307,false,0
Andrea Cardona,1000208,,308,false,0
Andres Botero,1000209,,309,false,0
Andrés Murcia,1000210,,310,false,0
Andrés Sanchez,1000211,,311,false,0
Ángel  Erazo ,1000212,,312,false,0
Angelica Casallas,1000213,,313,false,0
Aura  Izquierdo,1000214,,314,false,0
Bruce Garavito,1000215,,315,false,0
Carlos  Alvarado,1000216,,316,false,0
Carlos  Amaya ,1000217,,317,false,0
Carlos  Arrollo,1000218,,318,false,0
Carlos  García ,1000219,,319,false,0
Carlos Cantor,1000220,,320,false,0
Carlos Díaz,1000221,,321,false,0
Carlos Salgado,1000222,,322,false,0
Claudia Leonor Vesga,1000223,,323,false,0
Cristian Serrano,1000224,,324,false,0
Diana  Arias,1000225,,325,false,0
Diego  Bolaños,1000226,,326,false,0
Diego  Cambiaso,1000227,,327,false,0
Diego Ojeda,1000228,,328,false,0
Diego Rodriguez,1000229,,329,false,0
Edgar Ovalle,1000230,,330,false,0
Eduardo Hernández,1000231,,331,false,0
Eduardo Mafla,1000232,,332,false,0
Edwin Sabogal,1000233,,333,false,0
Ernesto Herrera,1000234,,334,false,0
Fabio  López,1000235,,335,false,0
Felipe  Galviz,1000236,,336,false,0
Felipe Lizcano,1000237,,337,false,0
Fernando  Rincón,1000238,,338,false,0
Gonzalo  Esguerra,1000239,,339,false,0
Gustavo Ortiz,1000240,,340,false,0
Gustavo Torres,1000241,,341,false,0
Hernando Paniagua,1000242,,342,false,0
Iván  Luzardo,1000243,,343,false,0
Jaime Dueñas,1000244,,344,false,0
Jairo Duque,1000245,,345,false,0
Jairo Perilla,1000246,,346,false,0
James Guapacho,1000247,,347,false,0
Jan Pablo Rosso,1000248,,348,false,0
Jennifer  Castiblanco,1000249,,349,false,0
Jessica  Chaves,1000250,,350,false,0
José Carlos  García,1000251,,351,false,0
Jose Saldana,1000252,,352,false,0
Juan Camilo  Ortiz,1000253,,353,false,0
Juan Camilo Maldonado,1000254,,354,false,0
Juan Manuel Neissa,1000255,,355,false,0
Juan Roberto Vargas,1000256,,356,false,0
Juan Sebastián Quintero,1000257,,357,false,0
Juanita Kremer,1000258,,358,false,0
Julieth Vásquez,1000259,,359,false,0
Katherine  Rodríguez,1000260,,360,false,0
Laura  Neira,1000261,,361,false,0
Linda Patiño,1000262,,362,false,0
Luis Alberto Gonzalez,1000263,,363,false,0
Manuel  Echeverry,1000264,,364,false,0
Marcela Perdomo,1000265,,365,false,0
Maria Camila Cruz,1000266,,366,false,0
Mario Chaves,1000267,,367,false,0
Medios Valbuena,1000268,,368,false,0
Michelle Barreto,1000269,,369,false,0
Miguel Angel Muñoz,1000270,,370,false,0
Mónica  Garzón,1000271,,371,false,0
Monica Montealegre,1000272,,372,false,0
Nicolas  Contreras,1000273,,373,false,0
Nicolás  Cuervo,1000274,,374,false,0
Nicolás Fernández,1000275,,375,false,0
Nicolás Schiller,1000276,,376,false,0
Oswaldo Martinez,1000277,,377,false,0
Oswaldo Vargas ,1000278,,378,false,0
Paola Andrea Acevedo,1000279,,379,false,0
Paulo Matamoros,1000280,,380,false,0
Raúl Ospina,1000281,,381,false,0
Ricardo  Galán ,1000282,,382,false,0
Samir Zambrano,1000283,,383,false,0
Sandra  Triana,1000284,,384,false,0
Sandra Rozo,1000285,,385,false,0
Santiago  Silvera,1000286,,386,false,0
Santiago Giraldo ,1000287,,387,false,0
Sarah Lee Méndez,1000288,,388,false,0
Sergio Trujillo,1000289,,389,false,0
Sharon Duran,1000290,,390,false,0
Simón  Hernández,1000291,,391,false,0
Tatiana Villalba ,1000292,,392,false,0
Virginia Cortés,1000293,,393,false,0
William  Diaz ,1000294,,394,false,0
Wilson  Vega,1000295,,395,false,0
Yesid  Aguilar,1000296,,396,false,0
Alejandro Rivas,1000297,,397,false,0
Alex Rodriguez,1000298,,398,false,0
Álvaro Vargas,1000299,,399,false,0
Andrea López Ospina,1000300,,400,false,0
Andres Camilo Castelblanco Peñuela,1000301,,401,false,0
Andres Cardona,1000302,,402,false,0
Andres Guarin,1000303,,403,false,0
Andres Mosquera,1000304,,404,false,0
Andres Samir Henao,1000305,,405,false,0
Andres Solorzano,1000306,,406,false,0
Angelo Patiño Gomez,1000307,,407,false,0
Bryan Jimenez Lopez,1000308,,408,false,0
Carina Gutiérrez Paz,1000309,,409,false,0
Carlos Andres Bolivar Polania,1000310,,410,false,0
Carlos botina Botina,1000311,,411,false,0
Carlos Orozco,1000312,,412,false,0
Daniel Felipe Morales Yusty,1000313,,413,false,0
Daniel García,1000314,,414,false,0
Daniela Jerez,1000315,,415,false,0
Diana Cañon,1000316,,416,false,0
Diana Vargas,1000317,,417,false,0
Esael Angel Andrade,1000318,,418,false,0
Esteban Andrade,1000319,,419,false,0
Fabian Camilo Muñoz Peñaloza,1000320,,420,false,0
fabio Serrano,1000321,,421,false,0
FELIPE ALEJANDRO MEDINA SUÁREZ,1000322,,422,false,0
Ginno Sebastián Henao Cusaria,1000323,,423,false,0
javier cubillos,1000324,,424,false,0
Jenny Ruiz,1000325,,425,false,0
JHON JAIMES,1000326,,426,false,0
Jhon Jairo Panche Quiroga,1000327,,427,false,0
Jimmy sneider Jerez Gonzalez,1000328,,428,false,0
Jorge Eduardo Rodriguez Pinilla Rodriguez Pinilla,1000329,,429,false,0
Josué Palacios,1000330,,430,false,0
Juan José Morales,1000331,,431,false,0
Libardo Trujillo,1000332,,432,false,0
Luis Hernan Gomez Ardila,1000333,,433,false,0
Luis Manuel Benedetti Rojas,1000334,,434,false,0
Manuel Dueñas,1000335,,435,false,0
Maritza Silva Serrano Silva Serrano,1000336,,436,false,0
Mateo Bedoya,1000337,,437,false,0
Michael Villada,1000338,,438,false,0
Nelson Castellanos,1000339,,439,false,0
Nicolas Gonzalez,1000340,,440,false,0
Nicolás Junco Villamizar,1000341,,441,false,0
Oscar David Chingate Rodriguez,1000342,,442,false,0
Paola Andrea Pinzon Trillos,1000343,,443,false,0
Paola Moreno,1000344,,444,false,0
Patricia Arteaga,1000345,,445,false,0
paula andrea ledesma,1000346,,446,false,0
Richard Andrés Diaz Niño,1000347,,447,false,0
Ronald Sidney Martinez Botello,1000348,,448,false,0
Santiago Gómez,1000349,,449,false,0
Santiago Ramirez,1000350,,450,false,0
SANTIAGO Yepes largo,1000351,,451,false,0
Valeria Montenegro,1000352,,452,false,0
William Molano,1000353,,453,false,0
 Juana Vargas,1000354,,454,false,0
Adriana Consuelo Chaves Camacho,1000355,,455,false,0
Adriana Mor,1000356,,456,false,0
Alejandra Diaz,1000357,,457,false,0
Alejandro Abril,1000358,,458,false,0
Alejandro Cubillos,1000359,,459,false,0
Alvaro Diego Galeano,1000360,,460,false,0
Ana Cristina Moya,1000361,,461,false,0
Ana Maria  Hernandez,1000362,,462,false,0
Andres Ovalle Bautista,1000363,,463,false,0
Andrés Vargas,1000364,,464,false,0
Andres Yoo,1000365,,465,false,0
Angela Holguín,1000366,,466,false,0
Antonio Herrera,1000367,,467,false,0
Aura Veraliz Mendez de Lopez,1000368,,468,false,0
Brian Kim,1000369,,469,false,0
Camilo Andres Hurtado Munoz,1000370,,470,false,0
Camilo Gomez,1000371,,471,false,0
Camilo Hinestroza,1000372,,472,false,0
Camilo Russi,1000373,,473,false,0
Carlos Andres Hleap Lozano,1000374,,474,false,0
Carlos Ernesto Vargas Calderon,1000375,,475,false,0
Carlos felipe Diaz,1000376,,476,false,0
Carol Muñóz,1000377,,477,false,0
Carolina Azuero,1000378,,478,false,0
Claudia Devia,1000379,,479,false,0
Constanza Sepulveda Prieto,1000380,,480,false,0
Cristhian Diaz,1000381,,481,false,0
Daniel Karim Abdala,1000382,,482,false,0
Daniela Alfonso,1000383,,483,false,0
Daniela Aragon,1000384,,484,false,0
Daniela Rodríguez,1000385,,485,false,0
Darwin Rojas,1000386,,486,false,0
David Suárez,1000387,,487,false,0
Diana Sanchez Coronado,1000388,,488,false,0
Diego Alejandro Pena,1000389,,489,false,0
Edgar Munoz,1000390,,490,false,0
Fanny Bibiana Hoyos Villamizar,1000391,,491,false,0
Francisco Correa,1000392,,492,false,0
Germán Castelblanco,1000393,,493,false,0
German Dario Martinez,1000394,,494,false,0
Gilma Lucía Díaz,1000395,,495,false,0
Guiomar Manosalva Avila,1000396,,496,false,0
Hector Fabio Gutierrez,1000397,,497,false,0
Ivan Alfredo Renteria Anzola,1000398,,498,false,0
Jacob Sebastian Sandberg,1000399,,499,false,0
Jegeol Kim,1000400,,500,false,0
Jeison Monsalve,1000401,,501,false,0
Jhon Hernandez,1000402,,502,false,0
Jimena castelblanco,1000403,,503,false,0
Jingwoong Kim,1000404,,504,false,0
Joe Won Yang,1000405,,505,false,0
Johan Hernando Pinzon Torres,1000406,,506,false,0
Jose Armando Pinto Delgado,1000407,,507,false,0
Juan David Reyes,1000408,,508,false,0
Juan Guillermo Piñeros,1000409,,509,false,0
Juan Manuel Andrade Rincon,1000410,,510,false,0
Juan Pablo Cortés,1000411,,511,false,0
Juan Pablo Montoya,1000412,,512,false,0
Juan Sebastián Téllez,1000413,,513,false,0
Julián Burbano,1000414,,514,false,0
Julian Enrique Nieto Manrique,1000415,,515,false,0
Julian Munar,1000416,,516,false,0
Julián Sandoval,1000417,,517,false,0
Juliana Bermúdez,1000418,,518,false,0
Juliana Ochoa,1000419,,519,false,0
Julio Cesar Vargas Diaz,1000420,,520,false,0
Laura Lopera,1000421,,521,false,0
Leonardo gonzález,1000422,,522,false,0
Liliana Valencia,1000423,,523,false,0
Lina Marcela Aristizabal Benitez,1000424,,524,false,0
Luis Cabeza,1000425,,525,false,0
Luis Felipe Díaz,1000426,,526,false,0
Luisa Fernanda Cardona Otalora,1000427,,527,false,0
Manuel Edgardo Fernández,1000428,,528,false,0
Marco Andres Guzman Palma,1000429,,529,false,0
Maria Alejandra Ducuara,1000430,,530,false,0
Maria Alejandra Orjuela Pava,1000431,,531,false,0
Maria Alejandra Rodriguez Vasquez,1000432,,532,false,0
Maria Camila Rey Prado,1000433,,533,false,0
Maria Elisa Goez,1000434,,534,false,0
Maria Paula Escobar,1000435,,535,false,0
Mayerli Uribe Tellez,1000436,,536,false,0
Nicolas Alonso,1000437,,537,false,0
Oriana Caro,1000438,,538,false,0
Pablo Andres Campo Caicedo,1000439,,539,false,0
Pablo Esteban Gomez Suarez,1000440,,540,false,0
Patricia Arteaga,1000441,,541,false,0
Patricia Piqueras,1000442,,542,false,0
Paula Ríos,1000443,,543,false,0
Paulo Ricardo Mendez Garcia,1000444,,544,false,0
Rafael Alberto Alarcon,1000445,,545,false,0
Rafael Latorre,1000446,,546,false,0
Ricardo Torres,1000447,,547,false,0
Santiago Ospina Pinzon,1000448,,548,false,0
Sergio Alberto Franco,1000449,,549,false,0
Sofia Mateus,1000450,,550,false,0
Sonia Vanegas,1000451,,551,false,0
Stefany Otero,1000452,,552,false,0
Susana Bermudez,1000453,,553,false,0
Thomas De Aquino Araujo,1000454,,554,false,0
Wendy Herrera,1000455,,555,false,0
Yongwan Kim,1000456,,556,false,0
Young Kim,1000457,,557,false,0
Diana Rubiano,1000458,,558,false,0
Gabriel Osorio,1000459,,559,false,0
Lina Niñoa,1000460,,560,false,0
Yair Yesid Peñaranda Verjel,1000461,,561,false,0
Paula Camila Rojas,1000462,,562,false,0
Giovanni Fonseca Duffo,1000463,,563,false,0
